﻿# Anbennar: disabled all of them

headgear_religious = {

	usage = game
	selection_behavior = weighted_random
	priority = 3

## Orthodox ##

	religious_orthodox_high = {
		dna_modifiers = {
			accessory = {
				mode = add
				gene = headgear
				template = religious_orthodox_high
				range = { 0 1 }
			}
		}
		outfit_tags = { priest_outfit bishop_outfit }
		weight = {
			base = 0
			# Anbennar
			# modifier = {
				# add = 130
				# portrait_religious_orthodox_trigger = yes
				# portrait_religious_high_headgear_trigger = {
					# FAITH_INPUT = orthodox
				# }
			# }
		}
	}

	religious_orthodox_head = {
		dna_modifiers = {
			accessory = {
				mode = add
				gene = headgear
				template = religious_orthodox_head
				range = { 0 1 }
			}
		}
		weight = {
			base = 0
			# Anbennar
			# modifier = {
				# add = 200
				# portrait_religious_head_trigger = yes
				# faith = faith:orthodox
			# }
		}
	}


## Catholic ##

	catholic_devoted = {
		dna_modifiers = {
			accessory = {
				mode = add
				gene = headgear
				template = religious_catholic_devoted
				range = { 0 1 } # For the randomness to work correctly
			}
			accessory = {
				mode = add
				gene = additive_headgear
				template = no_additive
				range = { 0 1 }
			}
		}
		outfit_tags = { monk_outfit }
		weight = {
			base = 0
			# Anbennar
			# modifier = {
				# add = 100
				# portrait_religious_devoted_trigger = yes
				# portrait_religious_christian_trigger = yes
			# }
		}
	}

	catholic_head = {
		outfit_tags = { rank_headgear }
		usage = game
		dna_modifiers = {
			accessory = {
				mode = add
				gene = headgear
				template = catholic_head
				range = { 0 1 }
			}
			accessory = {
				mode = add
				gene = additive_headgear
				template = no_additive
				range = { 0 1 }
			}
		}
		weight = {
			base = 0
			# Anbennar
			# modifier = {
				# add = 120			
				# portrait_religious_head_trigger = yes
				# portrait_religious_catholic_trigger = yes	
			# }	
		}
	}

	catholic_high = {
		outfit_tags = { rank_headgear }
		usage = game
		dna_modifiers = {
			accessory = {
				mode = add
				gene = headgear
				template = catholic_high
				range = { 0 1 }
			}
			accessory = {
				mode = add
				gene = additive_headgear
				template = no_additive
				range = { 0 1 }
			}
		}
		outfit_tags = { priest_outfit bishop_outfit }
		weight = {
			base = 0
			# Anbennar
			# modifier = {
				# add = 120
				# portrait_religious_christian_trigger = yes
				# portrait_religious_high_trigger = yes
			# }
		}
	}

	popes = {
		outfit_tags = { rank_headgear }
		usage = game
		dna_modifiers = {
			accessory = {
				mode = add
				gene = headgear
				template = catholic_head
				range = { 0 1 }
			}
		}
		weight = {
			base = 0
			# Anbennar
			# modifier = {
				# add = 140
				# portrait_religious_head_popes_trigger = yes
			# }
		}
	}

## Jewish ##

	religious_jewish_high_headgear = {
		dna_modifiers = {
			accessory = {
				mode = add
				gene = headgear
				template = religious_jewish_high
				range = { 0 1 }
			}
		}
		outfit_tags = { priest_outfit }
		weight = {
			base = 0
			# Anbennar
			# modifier = {
				# add = 100
				# portrait_religious_high_no_poverty_trigger = yes
				# OR = {
					# portrait_religious_jewish_trigger = yes
					# portrait_religious_hellenism_trigger = yes
				# }
			# }
		}
	}

	religious_jewish_head = {
		outfit_tags = { rank_headgear }
		usage = game
		dna_modifiers = {
			accessory = {
				mode = add

				gene = headgear
				template = religious_jewish_head
				range = { 0 1 }
			}
		}
		weight = {
			base = 0
			# Anbennar
			# modifier = {
				# add = 140
				# portrait_religious_head_no_poverty_trigger = yes
				# portrait_religious_jewish_trigger = yes
			# }
		}
	}

## Muslim ##

	religious_muslim_high_headgear = {
		dna_modifiers = {
			accessory = {
				mode = add
				gene = headgear
				template = religious_muslim_high
				range = { 0 1 }
			}
		}
		outfit_tags = { priest_outfit }
		weight = {
			base = 0
			# Anbennar
			# modifier = {
				# add = 111
				# portrait_religious_high_no_poverty_trigger = yes
				# portrait_religious_muslim_trigger = yes
			# }
		}
	}



## Northern Pagan ##

	religious_northern_high_headgear = {
		dna_modifiers = {
			accessory = {
				mode = add
				gene = headgear
				template = religious_northern_high
				range = { 0 1 }
			}
		}
		outfit_tags = { priest_outfit }
		weight = {
			base = 0
			# Anbennar
			# modifier = {
				# add = 100
				# portrait_religious_high_no_poverty_trigger = yes
				# portrait_religious_norse_trigger = yes
			# }
		}
	}


## Steppe ##

	religious_steppe_high_headgear = {
		dna_modifiers = {
			accessory = {
				mode = add
				gene = headgear
				template = religious_steppe_high
				range = { 0 1 }
			}
		}
		outfit_tags = { priest_outfit }
		weight = {
			base = 0
			# Anbennar
			# modifier = {
				# add = 100
				# portrait_religious_high_no_poverty_trigger = yes
				# portrait_religious_steppe_trigger = yes
			# }
		}
	}

## Buddhist ##

	religious_buddhist_devoted_headgear = {
		dna_modifiers = {
			accessory = {
				mode = add
				gene = headgear
				template = no_headgear
				range = { 0 1 } # For the randomness to work correctly
			}
			accessory = {
				mode = add
				gene = hairstyles
				template = no_hairstyles
				range = { 0 1 } # For the randomness to work correctly
			}
		}
		outfit_tags = { monk_outfit }
		weight = {
			base = 0
			# Anbennar
			# modifier = {
				# add = 100
				# portrait_has_trait_trigger = { TRAIT = devoted }
				# portrait_religious_buddhist_trigger = yes
				# NOT = { has_character_flag = has_scripted_appearance }
			# }
		}
	}

	religious_buddhist_high_headgear = {
		dna_modifiers = {
			accessory = {
				mode = add
				gene = headgear
				template = no_headgear
				range = { 0 1 } # For the randomness to work correctly
			}
			accessory = {
				mode = add
				gene = hairstyles
				template = no_hairstyles
				range = { 0 1 } # For the randomness to work correctly
			}
		}
		outfit_tags = { priest_outfit }
		weight = {
			base = 0
			# Anbennar
			# modifier = {
				# add = 110
				# portrait_religious_high_no_poverty_trigger = yes
				# portrait_religious_buddhist_trigger = yes
				# NOT = { has_character_flag = has_scripted_appearance }
			# }
		}
	}

## Hinduist ##

	religious_hindu_devoted_headgear = {
		dna_modifiers = {
			accessory = {
				mode = add
				gene = headgear
				template = no_headgear
				range = { 0 1 } # For the randomness to work correctly
			}
		}
		outfit_tags = { monk_outfit }
		weight = {
			base = 0
			# Anbennar
			# modifier = {
				# add = 100
				# portrait_has_trait_trigger = { TRAIT = devoted }
				# portrait_religious_hindu_trigger = yes
			# }
		}
	}

	religious_hindu_high_headgear = {
		dna_modifiers = {
			accessory = {
				mode = add
				gene = headgear
				template = no_headgear
				range = { 0 1 } # For the randomness to work correctly
			}
		}
		outfit_tags = { priest_outfit }
		weight = {
			base = 0
			# Anbennar
			# modifier = {
				# add = 110
				# portrait_religious_high_no_poverty_trigger = yes
				# portrait_religious_hindu_trigger = yes
			# }
		}
	}

## Zoroastrian ##

	religious_zoroastrian_high_headgear = {
		dna_modifiers = {
			accessory = {
				mode = add
				gene = headgear
				template = religious_zoroastrian_high
				range = { 0 1 }
			}
		}
		outfit_tags = { priest_outfit }
		weight = {
			base = 0
			# Anbennar
			# modifier = {
				# add = 100
				# portrait_religious_high_no_poverty_trigger = yes
				# portrait_religious_zoroastrian_trigger = yes
			# }
		}
	}

## Jain ##

	religious_jain_devoted_headgear = {
		dna_modifiers = {
			accessory = {
				mode = add
				gene = headgear
				template = no_headgear
				range = { 0 1 } # For the randomness to work correctly
			}
		}
		outfit_tags = { monk_outfit }
		weight = {
			base = 0
			# Anbennar
			# modifier = {
				# add = 100
				# portrait_has_trait_trigger = { TRAIT = devoted }
				# portrait_religious_jain_trigger = yes
			# }
		}
	}

	religious_jain_high_headgear = {
		dna_modifiers = {
			accessory = {
				mode = add
				gene = headgear
				template = no_headgear
				range = { 0 1 } # For the randomness to work correctly
			}
		}
		outfit_tags = { priest_outfit }
		weight = {
			base = 0
			# Anbennar
			# modifier = {
				# add = 110
				# exists = this
				# portrait_religious_high_no_poverty_trigger = yes
				# portrait_religious_jain_trigger = yes
			# }
		}
	}

## African Pagan ##

	# religious_african_devoted_clothes = {
	# 	dna_modifiers = {
	# 		accessory = {
	# 			mode = add
	# 			gene = clothes
	# 			template = mena_commoner_clothes
	# 			range = { 0 1 } # For the randomness to work correctly
	# 		}
	# 	}
	#	outfit_tags = { monk_outfit }
	# 	weight = {
	# 		base = 0
	# 		modifier = {
	# 			add = 100
	# 			portrait_has_trait_trigger = { TRAIT = devoted }
	# 			religion = religion:islam_religion
	# 		}
	# 	}
	# }

	religious_african_high_headgear = {
		dna_modifiers = {
			accessory = {
				mode = add
				gene = headgear
				template = religious_african_high
				range = { 0 1 }
			}
		}
		outfit_tags = { priest_outfit }
		weight = {
			base = 0
			# Anbennar
			# modifier = {
				# add = 110
				# portrait_religious_high_no_poverty_trigger = yes
				# portrait_religious_african_trigger = yes
			# }
		}
	}

}