﻿action_can_offer_assistance = {
	priority = 1000
	combine_into_one = yes
	check_create_action = {
		# if = { # Anbennar
			# limit = {
				# has_fp2_dlc_trigger = yes
				# any_character_struggle = {
					# involvement = involved
					# has_struggle_phase_parameter = unlocks_contract_assistance_interaction
					# any_involved_ruler = {
						# is_at_war = yes
						# primary_title = { is_mercenary_company = no }
						# NOR = {
							# this = root 
							# this = root.liege
							# is_at_war_with = root
							# is_at_war_with = root.liege
							# is_at_war_with = root.top_liege
						# }
					# }
				# }
			# }
			# every_character_struggle = {
				# involvement = involved
				# limit = { has_struggle_phase_parameter = unlocks_contract_assistance_interaction }
				# every_involved_ruler = {
					# limit = {
						# is_at_war = yes
						# primary_title = { is_mercenary_company = no }
						# NOR = {
							# this = root
							# this = root.liege
							# is_at_war_with = root
							# is_at_war_with = root.liege
							# is_at_war_with = root.top_liege
						# }
					# }
					# save_temporary_scope_as = contractee
					# if = {
						# limit = {
							# root = {
								# is_character_interaction_potentially_accepted = {
									# recipient = scope:contractee
									# interaction = contract_assistance_interaction
								# }
							# }
						# }
						# try_create_important_action = {
							# important_action_type = action_can_offer_assistance
							# actor = root
							# recipient = this
						# }
					# }
				# }
			# }
		# }
	}

	unimportant = {
		is_at_war = yes
	}
	
	effect = {
		open_interaction_window = {
			interaction = contract_assistance_interaction
			actor = scope:actor
			recipient = scope:recipient
		}
	}
}

action_can_bargain_fealty = {
	priority = 1000
	combine_into_one = yes
	check_create_action = {
		# if = { # Anbennar
			# limit = {
				# has_fp2_dlc_trigger = yes
				# any_character_struggle = {
					# involvement = involved
					# is_struggle_type = iberian_struggle
				# }
				# is_at_war = yes
				# any_character_war = {
					# is_war_leader = prev
					# primary_defender = prev
				# }
			# }
			# every_neighboring_and_across_water_top_liege_realm_owner = {
				# limit = {
					# primary_title.tier > root.primary_title.tier
					# NOR = {
						# any_character_struggle = {
							# involvement = involved
							# is_struggle_type = iberian_struggle
						# }
						# this = root
						# is_at_war_with = root
					# }
				# }
				# save_temporary_scope_as = interloper
				# if = {
					# limit = {
						# prev = {
							# is_character_interaction_potentially_accepted = {
								# recipient = scope:interloper
								# interaction = bargain_fealty_interaction
							# }
						# }
					# }
					# try_create_important_action = {
						# important_action_type = action_can_bargain_fealty
						# actor = root
						# recipient = scope:interloper
					# }
				# }
			# }
		# }
	}
	
	effect = {
		open_interaction_window = {
			interaction = bargain_fealty_interaction
			actor = scope:actor
			recipient = scope:recipient
		}
	}
}
