﻿
k_verkal_gulan = {
	903.4.17 = {
		holder = 128 # Girud of Verkal Gulan
	}
}

d_verkal_gulan = {
	903.4.17 = {
		holder = 128 # Girud of Verkal Gulan
	}
}

c_verkal_gulan = {
	903.4.17 = {
		holder = 128 # Girud of Verkal Gulan
	}
}
