k_ourdia = {
	1000.1.1 = { change_development_level = 8 }
	1012.1.1 = {
		holder = sun_elvish0001	#Jaher
	}
}

c_bal_ouord = {
	1000.1.1 = { change_development_level = 10 }
}

c_aldwigard = {
	1000.1.1 = { change_development_level = 7 }
}

d_lencmarck = {
	1000.1.1 = { change_development_level = 7 }
}