k_reuyel = {
	1000.1.1 = { change_development_level = 8 }
	1017.1.1 = {
		liege = e_bulwar
		holder = sun_elvish0030	# Uyel Uyelzuir
	}
}

d_reuyel = {
	1000.1.1 = { change_development_level = 9 }
	1017.1.1 = {
		holder = sun_elvish0030	# Uyel Uyelzuir
	}
}

c_reuyel = {
	1000.1.1 = { change_development_level = 15 }
	1017.1.1 = {
		holder = sun_elvish0030	# Uyel Uyelzuir
	}
}

c_kisakur = {
	1000.1.1 = { change_development_level = 10 }
}

c_kaproya_telen = {
	1000.1.1 = { change_development_level = 9 }
}