﻿
# House Gawe, kings of Gawed
gawe_0001 = { # Godrac I "the Invader" Gawe
	name = "Godrac"
	dynasty = dynasty_gawe
	religion = gawedi_temple
	culture = gawedi
	
	trait = race_human
	trait = education_martial_4
	trait = ambitious
	trait = brave
	trait = wrathful
	trait = adventurer
	trait = aggressive_attacker
	
	428.7.7 = {
		birth = yes
	}
	
	471.2.18 = {
		give_nickname = nick_the_invader
	}
	
	486.5.29 = {
		death = "486.5.29"
	}
}

gawe_0002 = { # Godrac II Gawe
	name = "Godrac"
	dynasty = dynasty_gawe
	religion = gawedi_temple
	culture = gawedi
	
	trait = race_human
	trait = diligent
	trait = humble
	trait = lustful
	
	father = gawe_0001
	
	470.2.10 = {
		birth = yes
	}
	
	530.2.26 = {
		death = "530.2.26"
	}
}

gawe_0003 = { # Ulric "the Eagle" Gawe, son of Godrac II
	name = "Ulric"
	dynasty = dynasty_gawe
	religion = gawedi_temple
	culture = gawedi
	
	trait = race_human
	trait = education_martial_3
	trait = brave
	trait = just
	trait = gregarious
	trait = flexible_leader
	trait = education_martial_prowess_3
	
	father = gawe_0002
	
	501.6.15 = {
		birth = yes
		give_nickname = nick_the_eagle
	}
	
	529.9.23 = {
		death = {
			death_reason = death_battle_of_red_reach
			killer = lorenan_the_great
		}
	}
}

gawe_0004 = { # Godryc Gawe, son of Godrac II
	name = "Godryc"
	dynasty = dynasty_gawe
	religion = gawedi_temple
	culture = gawedi
	
	trait = race_human
	trait = education_learning_2
	trait = calm
	trait = patient
	trait = humble
	trait = typhus
	
	father = gawe_0002
	
	506.3.11 = {
		birth = yes
	}
	
	528.5.14 = {
		death = {
			death_reason = death_typhus
		}
	}
}

gawe_0005 = { # Alenn Gawe, son of Godrac II
	name = "Alenn"
	dynasty = dynasty_gawe
	religion = gawedi_temple
	culture = gawedi
	
	trait = race_human
	trait = education_martial_2
	trait = brave
	trait = arrogant
	trait = wrathful
	trait = reckless
	trait = education_martial_prowess_2
	
	father = gawe_0002
	
	511.7.29 = {
		birth = yes
	}

	529.9.30 = {
		death = {
			death_reason = death_wounds
		}
	}
}

gawe_0006 = { # Godrac III Gawe
	name = "Godrac"
	dynasty = dynasty_gawe
	religion = gawedi_temple
	culture = gawedi
	
	trait = race_human
	trait = education_diplomacy_3
	trait = gregarious
	trait = honest
	trait = arbitrary
	trait = legitimized_bastard
	
	father = gawe_0002
	
	510.9.8 = {
		birth = yes
	}
	
	547.8.1 = {
		death = "547.8.1"
	}
}

gawe_0007 = { # Ulric I Gawe
	name = "Ulric"
	dynasty = dynasty_gawe
	religion = gawedi_temple
	culture = gawedi
	
	trait = race_human
	trait = education_stewardship_1
	trait = temperate
	trait = just
	trait = cynical
	
	father = gawe_0006
	
	531.9.15 = {
		birth = yes
	}
	
	548.12.2 = {
		death = "548.12.2"
	}
}

gawe_0008 = { # Godryc I Gawe
	name = "Godryc"
	dynasty = dynasty_gawe
	religion = gawedi_temple
	culture = gawedi
	
	trait = race_human
	trait = education_intrigue_2
	trait = arbitrary
	trait = content
	trait = zealous
	
	father = gawe_0006
	
	533.7.6 = {
		birth = yes
	}
	
	562.6.30 = {
		death = "562.6.30"
	}
}

gawe_0009 = { # Godrac IV "the Old" Gawe
	name = "Godrac"
	dynasty = dynasty_gawe
	religion = gawedi_temple
	culture = gawedi
	
	trait = race_human
	trait = education_diplomacy_2
	trait = stubborn
	trait = compassionate
	trait = honest
	
	father = gawe_0008
	
	556.10.30 = {
		birth = yes
	}
	
	638.11.10 = {
		give_nickname = nick_the_old
		death = "638.11.10"
	}
}

gawe_0010 = { # Alenn Gawe, son of Godrac IV
	name = "Alenn"
	dynasty = dynasty_gawe
	religion = gawedi_temple
	culture = gawedi
	
	trait = race_human
	trait = education_stewardship_1
	trait = fickle
	trait = impatient
	trait = forgiving
	
	father = gawe_0009
	
	580.2.4 = {
		birth = yes
	}
	
	633.1.11 = {
		death = "633.1.1"
	}
}

gawe_0011 = { # Godrac V Gawe
	name = "Godrac"
	dynasty = dynasty_gawe
	religion = gawedi_temple
	culture = gawedi
	
	trait = race_human
	trait = education_intrigue_1
	trait = paranoid
	trait = calm
	trait = gluttonous
	
	father = gawe_0010
	
	625.12.31 = {
		birth = yes
	}
	
	685.4.9 = {
		death = "685.4.9"
	}
}

gawe_0012 = { # Carlan I Gawe
	name = "Carlan"
	dynasty = dynasty_gawe
	religion = gawedi_temple
	culture = gawedi
	
	trait = race_human
	trait = education_martial_2
	trait = diligent
	trait = trusting
	trait = vengeful
	
	father = gawe_0011
	
	650.7.28 = {
		birth = yes
	}
	
	689.1.9 = {
		death = "689.1.9"
	}
}

gawe_0013 = { # Godwin I Gawe
	name = "Godwin"
	dynasty = dynasty_gawe
	religion = gawedi_temple
	culture = gawedi
	
	trait = race_human
	trait = education_learning_2
	trait = shy
	trait = chaste
	trait = honest
	
	father = gawe_0011
	
	657.1.27 = {
		birth = yes
	}
	
	708.10.1 = {
		death = "708.10.1"
	}
}

gawe_0014 = { # Ulric Gawe, son of Godrac V
	name = "Ulric"
	dynasty = dynasty_gawe
	religion = gawedi_temple
	culture = gawedi
	
	trait = race_human
	trait = education_diplomacy_1
	trait = fickle
	trait = chaste
	trait = lazy
	
	father = gawe_0011
	
	670.5.17 = {
		birth = yes
	}
	
	700.12.19 = {
		death = "700.12.19"
	}
}

gawe_0015 = { # Godrac VI Gawe
	name = "Godrac"
	dynasty = dynasty_gawe
	religion = gawedi_temple
	culture = gawedi
	
	trait = race_human
	trait = education_stewardship_1
	trait = lustful
	trait = stubborn
	trait = greedy
	
	father = gawe_0014
	
	699.2.10 = {
		birth = yes
	}
	
	745.8.13 = {
		death = "745.8.13"
	}
}

gawe_0016 = { # Godryc II Gawe
	name = "Godryc"
	dynasty = dynasty_gawe
	religion = gawedi_temple
	culture = gawedi
	
	trait = race_human
	trait = education_martial_3
	trait = compassionate
	trait = shy
	trait = arrogant
	
	father = gawe_0015
	
	724.12.2 = {
		birth = yes
	}
	
	771.10.26 = {
		death = "771.10.26"
	}
}

gawe_0017 = { # Godrac VII Gawe
	name = "Godrac"
	dynasty = dynasty_gawe
	religion = gawedi_temple
	culture = gawedi
	
	trait = race_human
	trait = education_diplomacy_1
	trait = fickle
	trait = gregarious
	trait = lazy
	
	father = gawe_0016
	
	747.4.18 = {
		birth = yes
	}
	
	791.3.25 = {
		death = "791.3.25"
	}
}

gawe_0018 = { # Alenn I Gawe
	name = "Alenn"
	dynasty = dynasty_gawe
	religion = gawedi_temple
	culture = gawedi
	
	trait = race_human
	trait = education_martial_2
	trait = callous
	trait = wrathful
	trait = diligent
	
	father = gawe_0017
	
	769.2.11 = {
		birth = yes
	}
	
	822.5.6 = {
		death = "822.5.6"
	}
}

gawe_0019 = { # Godrac VIII Gawe
	name = "Godrac"
	dynasty = dynasty_gawe
	religion = gawedi_temple
	culture = gawedi
	
	trait = race_human
	trait = education_intrigue_3
	trait = shy
	trait = humble
	trait = just
	
	father = gawe_0018
	
	792.8.17 = {
		birth = yes
	}
	
	839.6.9 = {
		death = "839.6.9"
	}
}

gawe_0020 = { # Godryc III Gawe
	name = "Godryc"
	dynasty = dynasty_gawe
	religion = gawedi_temple
	culture = gawedi
	
	trait = race_human
	trait = education_stewardship_1
	trait = arrogant
	trait = impatient
	trait = greedy
	
	father = gawe_0019
	
	816.4.12 = {
		birth = yes
	}
	
	864.7.17 = { # killed in a battle the day before the Sack of Gaweton
		death = {
			death_reason = death_battle
			killer = castan_XLIX
		}
	}
}

gawe_0021 = { # Ulric II Gawe
	name = "Ulric"
	dynasty = dynasty_gawe
	religion = gawedi_temple
	culture = gawedi
	
	trait = race_human
	trait = education_martial_1
	trait = vengeful
	trait = impatient
	trait = brave
	trait = reckless
	
	father = gawe_0020
	
	832.5.24 = {
		birth = yes
	}
	
	873.6.19 = { # a battle in the castanorian conquest of balmire/second war of ebonfrost
		death = {
			death_reason = death_battle
		}
	}
}

gawe_0022 = { # Alenn II Gawe
	name = "Alenn"
	dynasty = dynasty_gawe
	religion = gawedi_temple
	culture = gawedi
	
	trait = race_human
	trait = education_diplomacy_2
	trait = craven
	trait = zealous
	trait = arbitrary
	
	father = gawe_0021
	
	859.11.20 = {
		birth = yes
	}
	
	910.11.30 = {
		death = "910.11.30"
	}
}

gawe_0023 = { # Godrac IX Gawe
	name = "Godrac"
	dynasty = dynasty_gawe
	religion = gawedi_temple
	culture = gawedi
	
	trait = race_human
	trait = education_stewardship_3
	trait = craven
	trait = diligent
	trait = stubborn
	
	father = gawe_0022
	
	883.12.12 = {
		birth = yes
	}
	
	923.12.27 = {
		death = "923.12.27"
	}
}

gawe_0024 = { # Carlan II Gawe
	name = "Carlan"
	dynasty = dynasty_gawe
	religion = gawedi_temple
	culture = gawedi

	trait = race_human
	
	father = gawe_0023
	
	906.8.22 = {
		birth = yes
	}

	950.4.7 = {
		death = {
			death_reason = death_battle
		}
	}
}

gawe_0025 = { # Ulric III Gawe
	name = "Ulric"
	dynasty = dynasty_gawe
	religion = gawedi_temple
	culture = gawedi
	father = gawe_0024	#Carlan II Gawe

	trait = race_human

	929.3.6 = {
		birth = yes
	}

	956.12.4 = {
		death = {
			death_reason = death_ill
		}
	}
}

gawe_0026 = { # Godrac X Gawe
	name = "Godrac"
	dynasty = dynasty_gawe
	religion = gawedi_temple
	culture = gawedi
	father = gawe_0025

	trait = education_martial_2
	trait = wrathful
	trait = impatient
	trait = fickle

	trait = race_human

	952.1.15 = {
		birth = yes
	}

	986.5.23 = {	#Battle of the Golden Plains, beginning of Invasion of Gawed
		death = {
			death_reason = death_killed_war_of_sorcerer_king
			killer = 524	#Caylen Longlance
		}
	}
}

gawe_0027 = { # Alenn III Gawe
	name = "Alenn"
	dynasty = dynasty_gawe
	dna = 51_alenn_gawe_the_older
	religion = gawedi_temple
	culture = gawedi
	father = gawe_0026
	
	trait = education_martial_3
	trait = vengeful
	trait = wrathful
	trait = stubborn
	trait = irritable
	trait = physique_good_2
	trait = overseer
	
	972.4.5 = {
		birth = yes
		effect = {
			add_character_flag = has_scripted_appearance
		}
	}
	
	986.5.23 = {
		set_artifact_rarity_illustrious = yes
		create_artifact = {
			name = iron_crown_of_gawed_name
			description = iron_crown_of_gawed_description
			type = helmet
			visuals = pedestal_crown_iron
			wealth = scope:wealth
			quality = scope:quality
			history = {
				actor = character:gawe_0026 # Godrac X Gawe
				recipient = character:gawe_0027 # Alenn III
				type = inherited
				date = 986.5.23
			}
			modifier = iron_crown_of_gawed_modifier
			save_scope_as = newly_created_artifact
		}
		scope:newly_created_artifact = {
			set_variable = { name = historical_unique_artifact value = yes }
			add_artifact_history = {
				actor = character:gawe_0001 # Godrac I
				recipient = character:gawe_0001 # Godrac I
				location = province:216
				type = created
				date = 471.2.18
			}
			add_artifact_history = {
				actor = character:gawe_0001 # Godrac I
				recipient = character:gawe_0002 # Godrac II
				type = inherited
				date = 486.5.29
			}
			add_artifact_history = {
				actor = character:gawe_0002 # Godrac II
				recipient = character:gawe_0006 # Godrac III
				type = inherited
				date = 530.2.26
			}
			add_artifact_history = {
				actor = character:gawe_0006 # Godrac III
				recipient = character:gawe_0007 # Ulric I Gawe
				type = inherited
				date = 547.8.1
			}
			add_artifact_history = {
				actor = character:gawe_0007 # Ulric I Gawe
				recipient = character:gawe_0008 # Godryc I Gawe
				type = inherited
				date = 548.12.2
			}
			add_artifact_history = {
				actor = character:gawe_0008 # Godryc I Gawe
				recipient = character:gawe_0009 # Godrac IV "the Old" Gawe
				type = inherited
				date = 562.6.30
			}
			add_artifact_history = {
				actor = character:gawe_0009 # Godrac IV "the Old" Gawe
				recipient = character:gawe_0011 # Godrac V Gawe
				type = inherited
				date = 638.11.10
			}
			add_artifact_history = {
				actor = character:gawe_0011 # Godrac V Gawe
				recipient = character:gawe_0012 # Carlan I Gawe
				type = inherited
				date = 685.4.9
			}
			add_artifact_history = {
				actor = character:gawe_0012 # Carlan I Gawe
				recipient = character:gawe_0013 # Godwin I Gawe
				type = inherited
				date = 689.1.9
			}
			add_artifact_history = {
				actor = character:gawe_0013 # Godwin I Gawe
				recipient = character:gawe_0015 # Godrac VI Gawe
				type = inherited
				date = 708.10.1
			}
			add_artifact_history = {
				actor = character:gawe_0015 # Godrac VI Gawe
				recipient = character:gawe_0016 # Godryc II Gawe
				type = inherited
				date = 745.8.13
			}
			add_artifact_history = {
				actor = character:gawe_0016 # Godryc II Gawe
				recipient = character:gawe_0017 # Godrac VII Gawe
				type = inherited
				date = 771.10.26
			}
			add_artifact_history = {
				actor = character:gawe_0017 # Godrac VII Gawe
				recipient = character:gawe_0018 # Alenn I Gawe
				type = inherited
				date = 791.3.25
			}
			add_artifact_history = {
				actor = character:gawe_0018 # Alenn I Gawe
				recipient = character:gawe_0019 # Godrac VIII Gawe
				type = inherited
				date = 822.5.6
			}
			add_artifact_history = {
				actor = character:gawe_0019 # Godrac VIII Gawe
				recipient = character:gawe_0020 # Godryc III Gawe
				type = inherited
				date = 839.6.9
			}
			add_artifact_history = {
				actor = character:gawe_0020 # Godryc III Gawe
				recipient = character:gawe_0021 # Ulric II Gawe
				type = inherited
				date = 864.7.17
			}
			add_artifact_history = {
				actor = character:gawe_0021 # Ulric II Gawe
				recipient = character:gawe_0022 # Alenn II Gawe
				type = inherited
				date = 873.6.19
			}
			add_artifact_history = {
				actor = character:gawe_0022 # Alenn II Gawe
				recipient = character:gawe_0023 # Godrac IX Gawe
				type = inherited
				date = 910.11.30
			}
			add_artifact_history = {
				actor = character:gawe_0023 # Godrac IX Gawe
				recipient = character:gawe_0024 # Carlan II Gawe
				type = inherited
				date = 923.12.27
			}
			add_artifact_history = {
				actor = character:gawe_0024 # Carlan II Gawe
				recipient = character:gawe_0025 # Ulric III Gawe
				type = inherited
				date = 950.4.7
			}
			add_artifact_history = {
				actor = character:gawe_0025 # Ulric III Gawe
				recipient = character:gawe_0026 # Godrac X Gawe
				type = inherited
				date = 956.12.4
			}
		}
	}
	
	1023.6.3 = {
		death = "1023.6.3"
	}
}

gawe_0028 = { # Alenn "the Younger" Gawe, son of Alenn III
	name = "Alenn"	#Alenn the Younger
	dynasty = dynasty_gawe
	religion = gawedi_temple
	culture = gawedi
	father = gawe_0027
	
	991.4.5 = {
		birth = yes
	}
	
	1000.1.1 = {
		give_nickname = nick_the_younger
	}
	
	1014.2.16 = {	#Storming of Vertesk, he actually kills Venac the Arrogant
		death = {
			death_reason = death_killed_war_of_sorcerer_king
			killer = 521	#Venac the Arrogant
		}
	}
}

gawe_0029 = { # Ricard Gawe, son of Alenn III, Ricard I
	name = "Ricard"
	dynasty = dynasty_gawe
	religion = gawedi_temple
	culture = gawedi
	
	father = gawe_0027
	
	994.4.1 = {
		birth = yes
	}
	
	1016.2.10 = {
		add_spouse = gawedi_0001
	}
	
	1052.10.1 = {
		death = yes
	}
}

gawe_0030 = { # Stovac Gawe, son of Ricard Gawe
	name = "Stovac"
	dynasty = dynasty_gawe
	religion = gawedi_temple
	culture = gawedi
	
	trait = race_human
	
	father = gawe_0029
	mother = gawedi_0001
	
	1018.03.19 = {
		birth = yes
	}
	
	1043.02.10 = {
		death = yes
	}
}

gawe_0031 = { # Dalyon Gawe, son of Ricard Gawe
	name = "Dalyon"
	dynasty = dynasty_gawe
	religion = gawedi_temple
	culture = gawedi
	
	trait = race_human
	
	father = gawe_0029
	mother = gawedi_0001
	
	1021.9.15 = {
		birth = yes
	}
	
	1045.7.12 = {
		death = { 
			death_reason = death_ill # White Pestilence
		}
	}
}

gawe_0032 = { # Godrac Gawe, son of Ricard Gawe. father of Godrac XI and Stovac I
	name = "Godrac"
	dynasty = dynasty_gawe
	religion = gawedi_temple
	culture = gawedi
	
	trait = race_human
	
	father = gawe_0029
	mother = gawedi_0001
	
	1024.08.12 = {
		birth = yes
	}
	
	1045.08.03 = {
		death = yes
	}
}

# House Coldsteel, cadet branch of House Gawe
coldsteel_0001 = { # Godrac Coldsteel, son of Alenn III, founder of Coldsteel house
	name = "Godrac"
	dynasty_house = house_coldsteel
	religion = gawedi_temple
	culture = gawedi
	father = gawe_0027

	prowess = 20

	trait = race_human

	trait = callous
	trait = wrathful
	trait = brave
	trait = education_martial_3
	
	995.12.28 = {
		birth = yes
	}
	
	1000.1.1 = {
		give_nickname = nick_coldsteel
	}
	
	1014.7.14 = {	#Battle of Morban Flats
		death = {
			death_reason = death_battle_of_morban_flats
			killer = 34	#Clarimonde of Oldhaven
		}
	}
}

coldsteel_0002 = { # Ulric Coldesteel
	name = "Ulric"
	dynasty_house = house_coldsteel
	religion = gawedi_temple
	culture = gawedi
	father = coldsteel_0001
	
	1013.7.14 = {
		birth = yes
	}
}

# House Vanbury, cadet branch of House Gawe
vanbury_0001 = {
	name = "Ricard"
	dynasty_house = house_vanbury
	religion = gawedi_temple
	culture = gawedi
	
	trait = race_human
	
	father = gawe_0024	#Carlan II Gawe
	
	933.5.17 = {
		birth = yes
	}
	
	982.5.29 = {	#Battle of Vanbury Wood
		death = {
			death_reason = death_killed_war_of_sorcerer_king
			killer = 521	#Venac the Arrogant
		}
	}
}

vanbury_0002 = {
	name = "Carlan"
	dynasty_house = house_vanbury
	religion = gawedi_temple
	culture = gawedi
	
	trait = race_human
	trait = fecund
	
	father = vanbury_0001
	
	958.2.18 = {
		birth = yes
	}
	
	1015.4.10 = {
		death = {
			death_reason = death_natural_causes
		}
	}
}

vanbury_0003 = {
	name = "Godryc"
	dynasty_house = house_vanbury
	religion = gawedi_temple
	culture = gawedi
	father = vanbury_0002
	
	trait = race_human
	trait = education_stewardship_3
	trait = brave
	trait = lustful
	trait = temperate
	trait = fecund
	
	father = vanbury_0002
	
	984.7.4 = {
		birth = yes
	}
	
	1006.1.3 = {
		add_spouse = 532	#Matilda Drakesford
	}
	
	1012.5.10 = {
		add_spouse = 533	#Iserandel (Elf)
	}
}

vanbury_0004 = {
	name = "Alenn"
	dynasty_house = house_vanbury
	religion = gawedi_temple
	culture = gawedi
	
	trait = race_human
	trait = fecund
	
	father = vanbury_0003	#Godryc of Vanbury
	mother = 532	#Matilda of Drakesford
	
	1007.3.15 = {
		birth = yes
	}
}

vanbury_0005 = {
	name = "Ricard"
	dynasty_house = house_vanbury
	religion = gawedi_temple
	culture = gawedi
	
	trait = race_half_elf
	trait = fecund
	
	father = vanbury_0003	#Godryc of Vanbury
	mother = 533	#Iserandel
	
	1013.7.16 = {
		if = {
			limit = {
				has_game_rule = enable_marked_by_destiny
			}
			add_character_modifier = { modifier = anb_marked_by_destiny_modifier }
		}
		birth = yes
	}
}

# House Vanbury-Steelhyl, cadet branch of House Gawe
vanbury_steelhyl_0001 = {
	name = "Caylen"
	dynasty_house = house_vanbury_steelhyl
	religion = gawedi_temple
	culture = gawedi
	
	trait = race_human
	trait = education_stewardship_4	#Caylen was given Steelhyl to rule to revitalize Escanni economy and pay dividends to Free Realms
	trait = diligent
	trait = stubborn
	trait = callous
	trait = fecund
	
	father = vanbury_0002
	
	987.11.15 = {
		birth = yes
	}
}

# House of Eaglecrest, cadet branch of House Gawe

eaglecrest_0001 = { # Wyla of Eaglecrest, Great Lady of Eaglecrest
	name = "Wyla"
	dynasty_house = house_eaglecrest
	religion = gawedi_temple
	culture = gawedi
	female = yes
	
	trait = race_human
	
	father = gawe_0009
	
	577.12.23 = {
		birth = yes
	}
	
	635.9.29 = {
		death = "635.9.29"
	}
}

eaglecrest_0002 = { # Godrac I of Eaglecrest, Great Lord of Eaglecrest
	name = "Godrac"
	dynasty_house = house_eaglecrest
	religion = gawedi_temple
	culture = gawedi
	
	trait = race_human
	
	mother = eaglecrest_0001
	
	609.6.8 = {
		birth = yes
	}
	
	669.11.2 = {
		death = "669.11.2"
	}
}

eaglecrest_0003 = { # Welyam I of Eaglecrest, Great Lord of Eaglecrest
	name = "Welyam"
	dynasty_house = house_eaglecrest
	religion = gawedi_temple
	culture = gawedi
	
	trait = race_human
	
	father = eaglecrest_0002
	
	628.5.10 = {
		birth = yes
	}
	
	684.10.5 = {
		death = "684.10.5"
	}
}

eaglecrest_0004 = { # Godrac of Eaglecrest, son of Welyam I
	name = "Godrac"
	dynasty_house = house_eaglecrest
	religion = gawedi_temple
	culture = gawedi
	
	trait = race_human
	
	father = eaglecrest_0003
	
	651.9.20 = {
		birth = yes
	}
	
	679.3.17 = {
		death = "679.3.17"
	}
}

eaglecrest_0005 = { # Edmund I of Eaglecrest, Great Lord of Eaglecrest
	name = "Edmund"
	dynasty_house = house_eaglecrest
	religion = gawedi_temple
	culture = gawedi
	
	trait = race_human
	
	father = eaglecrest_0004
	
	677.8.30 = {
		birth = yes
	}
	
	705.6.26 = {
		death = "705.6.26"
	}
}

eaglecrest_0006 = { # Rycan I of Eaglecrest, Great Lord of Eaglecrest
	name = "Rycan"
	dynasty_house = house_eaglecrest
	religion = gawedi_temple
	culture = gawedi
	
	trait = race_human
	
	father = eaglecrest_0005
	
	700.5.11 = {
		birth = yes
	}
	
	754.9.19 = {
		death = "754.9.19"
	}
}

eaglecrest_0007 = { # Edmund II of Eaglecrest, Great Lord of Eaglecrest
	name = "Edmund"
	dynasty_house = house_eaglecrest
	religion = gawedi_temple
	culture = gawedi
	
	trait = race_human
	
	father = eaglecrest_0006
	
	719.10.10 = {
		birth = yes
	}
	
	757.4.2 = {
		death = "757.4.2"
	}
}

eaglecrest_0008 = { # Rycan II of Eaglecrest, Great Lord of Eaglecrest
	name = "Rycan"
	dynasty_house = house_eaglecrest
	religion = gawedi_temple
	culture = gawedi
	
	trait = race_human
	
	father = eaglecrest_0006
	
	723.2.27 = {
		birth = yes
	}
	
	774.6.9 = {
		death = "774.6.9"
	}
}

eaglecrest_0009 = { # Stovan I of Eaglecrest, Great Lord of Eaglecrest
	name = "Stovan"
	dynasty_house = house_eaglecrest
	religion = gawedi_temple
	culture = gawedi
	
	trait = race_human
	
	father = eaglecrest_0008
	
	740.5.12 = {
		birth = yes
	}
	
	792.11.20 = {
		death = "792.11.20"
	}
}

eaglecrest_0010 = { # Stovan II "the Foolish" of Eaglecrest, King of Eaglecrest (King Stovan I)
	name = "Stovan"
	dynasty_house = house_eaglecrest
	religion = gawedi_temple
	culture = gawedi
	
	trait = race_human
	trait = education_stewardship_2
	trait = stubborn
	trait = ambitious
	trait = arbitrary
	
	father = eaglecrest_0009
	
	765.9.29 = {
		birth = yes
	}
	
	826.10.17 = { # died during the reverian invasion
		give_nickname = nick_the_foolish
		death = {
			death_reason = death_battle
		}
	}
}

eaglecrest_0011 = { # Welyam of Eaglecrest, son of Stovan II
	name = "Welyam"
	dynasty_house = house_eaglecrest
	religion = gawedi_temple
	culture = gawedi
	
	trait = race_human
	
	father = eaglecrest_0010
	
	784.12.8 = {
		birth = yes
	}
	
	826.10.17 = { # died during the reverian invasion
		death = {
			death_reason = death_battle
		}
	}
}

eaglecrest_0012 = { # Warde I of Eaglecrest, Great Lord of Eaglecrest
	name = "Warde"
	dynasty_house = house_eaglecrest
	religion = gawedi_temple
	culture = gawedi
	
	trait = race_human
	
	father = eaglecrest_0009
	
	780.6.28 = {
		birth = yes
	}
	
	832.1.11 = {
		death = "832.1.11"
	}
}

eaglecrest_0013 = { # Godrac III of Eaglecrest, Great Lord of Eaglecrest
	name = "Godrac"
	dynasty_house = house_eaglecrest
	religion = gawedi_temple
	culture = gawedi
	
	trait = race_human
	
	father = eaglecrest_0012
	
	799.9.10 = {
		birth = yes
	}
	
	860.3.14 = {
		death = "860.3.14"
	}
}

eaglecrest_0014 = { # Godrac IV of Eaglecrest, Great Lord of Eaglecrest
	name = "Godrac"
	dynasty_house = house_eaglecrest
	religion = gawedi_temple
	culture = gawedi
	
	trait = race_human
	
	father = eaglecrest_0013
	
	828.12.10 = {
		birth = yes
	}
	
	865.7.9 = {
		death = {
			death_reason = death_sea_storm
		}
	}
}

eaglecrest_0015 = { # Godrac of Eaglecrest, son of Godrac IV
	name = "Godrac"
	dynasty_house = house_eaglecrest
	religion = gawedi_temple
	culture = gawedi
	
	trait = race_human
	
	father = eaglecrest_0014
	
	851.12.17 = {
		birth = yes
	}
	
	865.7.9 = {
		death = {
			death_reason = death_sea_storm
		}
	}
}

eaglecrest_0016 = { # Rycan of Eaglecrest, son of Godrac III
	name = "Rycan"
	dynasty_house = house_eaglecrest
	religion = gawedi_temple
	culture = gawedi
	
	trait = race_human
	
	father = eaglecrest_0013
	
	834.4.4 = {
		birth = yes
	}
	
	848.9.24 = {
		death = {
			death_reason = death_ill
		}
	}
}

eaglecrest_0017 = { # Edmund III of Eaglecrest, Great Lord of Eaglecrest
	name = "Edmund"
	dynasty_house = house_eaglecrest
	religion = gawedi_temple
	culture = gawedi
	
	trait = race_human
	
	father = eaglecrest_0013
	
	837.6.23 = {
		birth = yes
	}
	
	900.1.30 = {
		death = "900.1.30"
	}
}

eaglecrest_0018 = { # Welyam II of Eaglecrest, Great Lord of Eaglecrest
	name = "Welyam"
	dynasty_house = house_eaglecrest
	religion = gawedi_temple
	culture = gawedi
	
	trait = race_human
	
	father = eaglecrest_0017
	
	863.3.30 = {
		birth = yes
	}
	
	907.6.12 = {
		death = "907.6.12"
	}
}

eaglecrest_0019 = { # Brandon I of Eaglecrest, Great Lord of Eaglecrest
	name = "Brandon"
	dynasty_house = house_eaglecrest
	religion = gawedi_temple
	culture = gawedi
	
	trait = race_human
	
	father = eaglecrest_0018
	
	899.8.19 = {
		birth = yes
	}
	
	933.7.17 = {
		death = "933.7.17"
	}
}

eaglecrest_0020 = { # Welyam III of Eaglecrest, Great Lord of Eaglecrest
	name = "Welyam"
	dynasty_house = house_eaglecrest
	religion = gawedi_temple
	culture = gawedi
	
	trait = race_human
	
	father = eaglecrest_0019
	
	917.3.16 = {
		birth = yes
	}
	
	940.4.3 = {
		death = "940.4.3"
	}
}

eaglecrest_0021 = { # Alenn I of Eaglecrest, Great Lord of Eaglecrest
	name = "Alenn"
	dynasty_house = house_eaglecrest
	religion = gawedi_temple
	culture = gawedi
	
	trait = race_human
	trait = education_learning_1
	trait = craven
	trait = compassionate
	trait = shy
	trait = depressed_1
	
	father = eaglecrest_0020
	
	936.8.10 = {
		birth = yes
	}
	
	954.9.7 = {
		add_spouse = gawedi_0002
	}
	
	962.11.14 = {
		death = {
			death_reason = death_suicide
		}
	}
}

eaglecrest_0022 = { # Alenn of Eaglecrest, son of Alenn I
	name = "Alenn"
	dynasty_house = house_eaglecrest
	religion = gawedi_temple
	culture = gawedi
	
	trait = race_human
	trait = sickly
	
	father = eaglecrest_0021
	mother = gawedi_0002
	
	955.8.19 = {
		birth = yes
	}
	
	958.10.22 = {
		death = {
			death_reason = death_sickly
		}
	}
}

eaglecrest_0023 = { # Wyla of Eaglecrest, daughter of Alenn I
	name = "Wyla"
	dynasty_house = house_eaglecrest
	religion = gawedi_temple
	culture = gawedi
	female = yes
	
	trait = race_human
	
	father = eaglecrest_0021
	mother = gawedi_0002
	
	959.8.13 = {
		birth = yes
	}
	
	959.8.14 = {
		death = "959.8.14"
	}
}

eaglecrest_0024 = { # Welyam of Eaglecrest, son of Alenn I
	name = "Welyam"
	dynasty_house = house_eaglecrest
	religion = gawedi_temple
	culture = gawedi
	
	trait = race_human
	
	father = eaglecrest_0021
	mother = gawedi_0002
	
	962.11.13 = {
		birth = yes
	}
	
	962.11.14 = {
		death = "962.11.14"
	}
}

eaglecrest_0025 = { # Edmund of Eaglecrest, son of Brandon I
	name = "Edmund"
	dynasty_house = house_eaglecrest
	religion = gawedi_temple
	culture = gawedi
	
	trait = race_human
	
	father = eaglecrest_0019
	
	920.6.18 = {
		birth = yes
	}
	
	956.2.4 = {
		death = "956.2.4"
	}
}

eaglecrest_0026 = { # Warde II of Eaglecrest, Great Lord of Eaglecrest
	name = "Warde"
	dynasty_house = house_eaglecrest
	religion = gawedi_temple
	culture = gawedi
	
	trait = race_human
	
	father = eaglecrest_0025
	
	941.7.19 = {
		birth = yes
	}
	
	980.4.29  ={
		death = {
			death_reason = death_killed_war_of_sorcerer_king
		}
	}
}

eaglecrest_0027 = { # Edmund III of Eaglecrest, King of Eaglecrest (King Edmund I)
	name = "Edmund"
	dynasty_house = house_eaglecrest
	religion = gawedi_temple
	culture = gawedi
	
	trait = race_human
	
	father = eaglecrest_0026
	
	959.9.24 = {
		birth = yes
	}
	
	992.12.10 = { # Fall of Eaglecrest
		death = {
			death_reason = death_killed_war_of_sorcerer_king
		}
	}
}

eaglecrest_0028 = { # Brandon II of Eaglecrest, King of Eaglecrest (King Brandon I)
	name = "Brandon"
	dynasty_house = house_eaglecrest
	religion = gawedi_temple
	culture = gawedi
	
	trait = race_human
	
	father = eaglecrest_0026
	
	961.7.3 = {
		birth = yes
	}
	
	1010.4.2 = {
		death = {
			death_reason = death_killed_war_of_sorcerer_king
		}
	}
}

eaglecrest_0029 = { # Warde III of Eaglecrest, King of Eaglecrest (King Warde I)
	name = "Warde"
	dynasty_house = house_eaglecrest
	religion = gawedi_temple
	culture = gawedi
	
	trait = race_human
	
	father = eaglecrest_0028
	
	997.3.4 = {
		birth = yes
	}
}

# Random dudes
gawedi_0001 = {
	name = "Athela"
	# lowborn
	religion = gawedi_temple
	culture = gawedi
	female = yes
	
	trait = race_human

	999.7.29 = {
		birth = yes
	}
	
	1016.2.10 = {
		add_spouse = gawe_0029
	}
}

gawedi_0002 = {
	name = "Dalya"
	# should be a noble
	religion = gawedi_temple
	culture = gawedi
	female = yes
	
	trait = race_human
	
	938.6.15 = {
		birth = yes
	}
	
	962.11.13 = {
		death = {
			death_reason = death_childbirth
		}
	}
}


62 = { # Rylen of Adshaw
	name = "Rylen"
	dna = 62_rylen_adshaw
	dynasty = dynasty_adshaw #Adshaw
	religion = cult_of_falah
	culture = old_alenic
	
	trait = race_human
	trait = vengeful
	trait = impatient
	trait = arbitrary
	trait = education_martial_3
	
	980.4.6 = {
		birth = yes
		effect = {
			add_character_flag = has_scripted_appearance
		}
	}
	
	998.8.2 = {
		add_spouse = 30024
		
		effect = {
			spawn_army = {
				name = reachman_loyalists
				levies = 200

				men_at_arms = {
					type = light_footmen
					men = 100
				}

				location = province:2679
				origin = province:2679
				inheritable = no
			}
		}
	}
	
	1022.1.1 = {
		trigger_event = {
			id = anb_reachman_independence.0001
			months = 2
		}
	}
}

30000 = { # Peter Goldeneyes
	dna = 30000_peter_goldeneyes
	name = "Peter"
	dynasty = dynasty_goldeneyes
	religion = cult_of_falah
	culture = old_alenic

	trait = calm
	trait = brave
	trait = stubborn
	trait = education_martial_4
	trait = berserker
	trait = race_human
	trait = unyielding_defender
	
	998.4.4 = {
		birth = yes
	}
}

30001 = { # Betram Frostwall
	dna = 30001_betram_frostwall
	name = "Betram"
	dynasty = dynasty_frostwall
	religion = cult_of_falah
	culture = old_alenic

	trait = content
	trait = callous
	trait = arrogant
	trait = education_martial_4
	trait = race_human
	
	986.10.6 = {
		birth = yes
	}
	
	1018.6.2 = {
		add_spouse = 30002
	}
	
	1021.06.27 = {
		add_pressed_claim = title:c_frostwall
		effect = {
			set_relation_rival = character:30000 # Peter Goldeneyes
		}
	}
	
	1021.09.12 = {
		employer = 62
		give_council_position = councillor_marshal
	}
}

30002 = { # Bertam wife Mechthild
	name = "Annabel"
	religion = cult_of_falah
	dynasty = dynasty_adshaw #Adshaw
	culture = old_alenic
	female = yes

	trait = impatient
	trait = ambitious
	trait = arrogant
	trait = education_diplomacy_3
	trait = race_human
	
	father = 62
	mother = 30024
	
	1000.10.6 = {
		birth = yes
	}
	
	1018.6.2 = {
		add_spouse = 30001
	}
}

30003 = { # Betram child 1
	name = "Adrian"
	dynasty = dynasty_frostwall
	religion = cult_of_falah
	culture = old_alenic
	father = 30001
	mother = 30002
	
	1019.12.4 = {
		birth = yes
	}
}

30004 = { # Toste of Everwharf
	dna = 30004_toste_everwharf
	name = "Toste"
	religion = cult_of_falah
	culture = blue_reachman

	trait = greedy
	trait = deceitful
	trait = lustful
	trait = education_intrigue_2
	trait = race_human
	
	978.8.18 = {
		birth = yes
	}
	
	1006.12.1 = {
		add_spouse = 30005
	}
}

30005 = { # Toste wife Hrothwina
	name = "Hrothwina"
	religion = cult_of_falah
	culture = old_alenic
	female = yes
	
	986.9.14 = {
		birth = yes
	}
	
	1006.12.1 = {
		add_spouse = 30004
	}
}

30006 = { # Toste child 1
	name = "Eardwulf"
	religion = cult_of_falah
	culture = blue_reachman
	female = yes
	father = 30004
	mother = 30005
	
	1009.4.9 = {
		birth = yes
	}
}

30007 = { # Toste child 2
	name = "Camir"
	religion = cult_of_falah
	culture = blue_reachman
	father = 30004
	mother = 30005
	
	1012.6.22 = {
		birth = yes
	}
}

30008 = { # Toste child 3
	name = "Lan"
	religion = cult_of_falah
	culture = blue_reachman
	father = 30004
	mother = 30005
	
	1019.7.14 = {
		birth = yes
	}
}

30009 = { # Niklas of Reachspier
	dna = 30009_nikla_reachspier
	name = "Niklas"
	religion = cult_of_falah
	culture = blue_reachman
	
	trait = impatient
	trait = compassionate
	trait = vengeful
	trait = education_diplomacy_1
	trait = race_human

	1000.3.4 = {
		birth = yes
	}
}

30010 = { # Valdemar of Coldmarket
	dna = 300010_valdemar_coldmarket
	name = "Valdemar"
	religion = skaldhyrric_faith
	culture = blue_reachman
	
	trait = craven
	trait = patient
	trait = ambitious
	trait = education_intrigue_3
	trait = race_human

	974.4.5 = {
		birth = yes
	}
	
	1004.10.9 = {
		add_spouse = 30011
	}
}

30011 = { # Valdemar Wife
	name = "Coraline"
	religion = skaldhyrric_faith
	culture = blue_reachman
	female = yes

	974.7.15 = {
		birth = yes
	}
	
	1004.10.9 = {
		add_spouse = 30010
	}
	
	1020.6.5 = {
		death = {
			death_reason = death_childbirth
		}
	}
}

30012 = { # Valdemar Child 1
	name = "Adrian"
	religion = skaldhyrric_faith
	culture = blue_reachman
	father = 30010
	mother = 30011
	
	1006.7.14 = {
		birth = yes
	}
}

30013 = { # Valdemar Child 2
	name = "Irminburg"
	female = yes
	religion = skaldhyrric_faith
	culture = blue_reachman
	father = 30010
	mother = 30011
	
	1010.7.14 = {
		birth = yes
	}
}

30014 = { # Valdemar Child 3
	name = "Bertha"
	female = yes
	religion = skaldhyrric_faith
	culture = blue_reachman
	father = 30010
	mother = 30011
	
	1016.7.14 = {
		birth = yes
	}
}

30015 = { # Valdemar Child 4
	name = "Clothilde"
	female = yes
	religion = skaldhyrric_faith
	culture = blue_reachman
	father = 30010
	mother = 30011
	
	1020.6.5 = {
		birth = yes
	}
}

30016 = { # Tomar Adshaw (deceased)
	name = "Tomar"
	religion = cult_of_falah
	culture = old_alenic
	dynasty = dynasty_adshaw #Adshaw
	
	trait = race_human
	trait = patient
	trait = just
	trait = stubborn
	
	972.4.6 = {
		birth = yes
		effect = {
			add_character_flag = has_scripted_appearance
		}
	}
	1013.3.4 = {
		death = {
			death_reason = death_execution
			killer = 521 # Venac the Arrogant
		}
	}
}

30018 = { # Helena of Evnermark
	name = "Helena"
	religion = skaldhyrric_faith
	culture = blue_reachman
	female = yes
	
	trait = race_human
	trait = arrogant
	trait = lazy
	trait = deceitful
	trait = education_intrigue_1
	trait = magical_affinity_1
	
	984.3.11 = {
		birth = yes
		set_sexuality = homosexual
	}
}

30019 = { # Mathias of Dinesk
	name = "Mathias"
	religion = cult_of_falah
	culture = blue_reachman # Not Old Alenic
	
	trait = race_human
	trait = patient
	trait = wrathful
	trait = arbitrary
	trait = education_diplomacy_1
	
	987.4.16 = {
		birth = yes
	}
	
	1006.2.22 = {
		add_spouse = 30020
	}
}

30020 = { # Geilana
	name = "Geilana"
	religion = cult_of_falah
	culture = blue_reachman
	female = yes
	
	trait = race_human
	
	988.1.20 = {
		birth = yes
	}
	
	1006.2.22 = {
		add_spouse = 30019
	}
}

30021 = { # Mathias Child 1
	name = "Asig"
	religion = cult_of_falah
	culture = blue_reachman
	father = 30019
	mother = 30020
	
	trait = race_human
	
	1006.12.29 = {
		birth = yes
	}
}

30022 = { # Mathias Child 2
	name = "Liudger"
	religion = cult_of_falah
	culture = blue_reachman
	father = 30019
	mother = 30020
	
	trait = race_human
	
	1012.6.1 = {
		birth = yes
	}
}

30023 = { # Mathias Child 3
	name = "Alain"
	religion = cult_of_falah
	culture = blue_reachman
	father = 30019
	mother = 30020
	
	trait = race_human
	
	1013.10.4 = {
		birth = yes
	}
}

30024 = { # Rylen Wife
	name = "Athana"
	religion = cult_of_falah
	culture = old_alenic
	female = yes
	
	trait = race_human
	
	980.4.6 = {
		birth = yes
	}
	
	998.8.2 = {
		add_spouse = 62
	}
}

30025 = { # Rylen Child 2 (First is married to Bertram)
	name = "Andrew"
	religion = cult_of_falah
	culture = old_alenic
	
	trait = race_human
	
	father = 62
	mother = 30024
	
	1004.1.16 = {
		birth = yes
	}
}

30026 = { # Rylen Child 3 (First is married to Bertram)
	name = "Branden"
	religion = cult_of_falah
	culture = old_alenic
	
	trait = race_human
	
	father = 62
	mother = 30024
	
	1012.2.12 = {
		birth = yes
	}
}

alenic30027 = { # Count Byron Drakesford
	name = "Byron"
	dynasty = dynasty_drakesford
	religion = ansuwir
	culture = gawedi
	
	trait = race_human
	trait = education_martial_3
	trait = brave
	trait = stubborn
	trait = paranoid
	trait = flexible_leader
	trait = education_martial_prowess_3
	trait = human_purist
	
	father = alenic30030
	mother = alenic30031
	
	992.3.26 = {
		birth = yes
	}
	
	1015.12.14 = {
		add_trait = wounded_1
	}
	
	1016.4.9 = {
		remove_trait = wounded_1
		add_trait = scarred
		add_spouse = alenic30028
	}
}

alenic30028 = { # Abigail, wife of Byron
	name = "Abigail"
	# lowborn
	religion = ansuwir
	culture = gawedi
	female = yes
	
	trait = race_human
	trait = education_learning_1
	trait = diligent
	trait = honest
	trait = compassionate
	trait = lifestyle_physician
	
	995.8.13 = {
		birth = yes
	}
	
	1015.6.2 = {
		set_relation_friend = character:alenic30032
	}
	
	1016.4.9 = {
		add_spouse = alenic30027
		set_relation_lover = character:alenic30027
	}
}

alenic30029 = { # Tomac Drakesford, son of Byron
	name = "Tomac"
	dynasty = dynasty_drakesford
	religion = ansuwir
	culture = gawedi
	
	trait = race_human
	trait = charming
	
	father = alenic30027
	mother = alenic30028
	
	1017.8.17 = {
		birth = yes
	}
}

alenic30030 = { # Garrett Drakesford, father of Byron
	name = "Garrett"
	dynasty = dynasty_drakesford
	religion = ansuwir
	culture = gawedi
	
	trait = race_human
	trait = education_martial_1
	trait = stubborn
	trait = vengeful
	trait = honest
	
	968.4.9 = {
		birth = yes
	}
	
	987.2.7 = {
		add_spouse = alenic30031
	}
	
	1015.12.14 = {
		death = {
			death_reason = death_battle_of_balmire
		}
	}
}

alenic30031 = { # wife of Garrett
	name = "Lisban"
	# some dynasty
	religion = ansuwir
	culture = gawedi
	female = yes
	
	trait = race_human
	trait = education_stewardship_1
	trait = temperate
	trait = craven
	trait = chaste
	
	969.7.20 = {
		birth = yes
	}
	
	987.2.7 = {
		add_spouse = alenic30030
	}
}

alenic30032 = { # Walter, court physician of Byron
	name = "Walter"
	# lowborn
	religion = ansuwir
	culture = gawedi
	
	trait = race_human
	trait = trusting
	trait = calm
	trait = content
	trait = lifestyle_physician
	
	960.9.30 = {
		birth = yes
	}
	
	1017.8.17 = {
		set_court_physician_effect = {
			EMPLOYER = character:alenic30027
			PHYSICIAN = character:alenic30032
		}
		
		add_trait_xp = {
			trait = lifestyle_physician
			value = 50
		}
	}
}

alenic30033 = { # Godrac Baldfather
	name = "Godrac"
	dynasty = dynasty_baldfather
	religion = gawedi_temple
	culture = gawedi
	
	trait = race_human
	trait = wrathful
	trait = brave
	trait = stubborn
	trait = education_martial_4
	trait = human_purist
	trait = berserker
	trait = aggressive_attacker
	trait = physique_good_2
	trait = dull
	
	980.3.14 = {
		birth = yes
	}
	1011.1.1 = {
		add_spouse = alenic30034
		set_relation_soulmate = character:alenic30034
	}
	1015.12.14 = {
		add_trait = wounded_2
	}
	1019.4.9 = {
		remove_trait = wounded_2
		add_trait = scarred
	}
}
	
alenic30034 = { # Matilda Baldfather
	name = "Matilda"
	# lowborn
	religion = gawedi_temple
	culture = gawedi
	female = yes
	
	trait = race_human
	trait = education_stewardship_2
	trait = human_purist
	trait = diligent
	trait = humble
	trait = content
	trait = beauty_good_1
	
	992.5.26 = {
		birth = yes
	}
	1011.1.1 = {
		add_spouse = alenic30033
	}
	1021.12.29 = {
		add_trait = pneumonic
	}
}

alenic30035 = { # Colyn Baldfather
	name = "Colyn"
	dynasty = dynasty_baldfather
	religion = gawedi_temple
	culture = gawedi
	
	trait = race_human
	trait = bossy
	trait = physique_good_2
	
	father = alenic30033
	mother = alenic30034
	
	1020.4.23 = {
		birth = yes
	}

}

alenic30036 = { # Dalya Baldfather
	name = "Dalya"
	dynasty = dynasty_baldfather
	religion = gawedi_temple
	culture = gawedi
	female = yes
	
	trait = race_human
	trait = charming
	trait = beauty_good_1
	
	father = alenic30033
	mother = alenic30034
	
	1021.3.7 = {
		birth = yes
	}

}

alenic30037 = { # Allen Baldfather
	name = "Allen"
	dynasty = dynasty_baldfather
	religion = gawedi_temple
	culture = gawedi
	
	trait = race_human
	trait = intellect_bad_1
	
	father = alenic30033
	mother = alenic30034
	
	1022.1.1 = {
		birth = yes
	}
}

alenic30038 = { # Count Colm Cockerwall
	name = "Colm"
	dynasty = dynasty_cockerwall
	religion = gawedi_temple
	culture = moorman
	
	trait = diligent
	trait = ambitious
	trait = race_human
	trait = stubborn
	
	father = alenic30039

	1001.1.05 = {
		birth = yes
	}
}

alenic30039 = { # Welyam Cockerwall, father of Colm
	name = "Welyam"
	dynasty = dynasty_cockerwall
	religion = gawedi_temple
	culture = moorman

	trait = trusting
	trait = brave
	trait = honest
	trait = race_human

	980.3.21 {
		birth = yes
	}

	1015 = {
		death = {
			death_reason = death_killed_war_of_sorcerer_king
		}
	}
}

alenic30040 = { # Oswald Oudescker
	name = "Oswald"
	dynasty = dynasty_oudescker
	religion = gawedi_temple
	culture = gawedi
	
	trait = brave
	trait = stubborn
	trait = just
	trait = scarred
	trait = physique_good_1
	trait = race_human
	trait = loyal
	trait = education_martial_4
	
	961.2.16 {
		birth = yes
	}
}

alenic30041 = { # Tomar Oudescker
	name = "Tomar"
	dynasty = dynasty_oudescker
	religion = gawedi_temple
	culture = gawedi

	trait = gregarious
	trait = brave
	trait = compassionate
	trait = race_human
	trait = physique_good_1
	trait = loyal
	trait = education_martial_3
	
	father = alenic30040
	
	979.5.11 {
		birth = yes
	}
	
	1005.2.26 = {
		death = {
			death_reason = death_killed_war_of_sorcerer_king
		}
	}
}

alenic30042 = { # Peyter Oudescker
	name = "Peyter"
	dynasty = dynasty_oudescker
	religion = gawedi_temple
	culture = gawedi
	
	trait = race_human
	trait = education_stewardship_3
	trait = diligent
	trait = patient
	trait = just
	trait = physique_bad_1
	
	father = alenic30041

	1002.1.30 = {
		birth = yes
	}
}

alenic30043 = { # Edric Oudescker
	name = "Edric"
	dynasty = dynasty_oudescker
	religion = gawedi_temple
	culture = gawedi
	
	trait = physique_good_1
	trait = education_martial_2
	trait = forder
	trait = stubborn
	trait = gregarious
	trait = brave
	
	father = alenic30041

	1003.5.20 = {
		birth = yes
	}
}

gerwick_0001 = { # Lord Godryc Gerwick
	name = "Godryc"
	dynasty = dynasty_gerwick
	religion = gawedi_temple
	culture = gawedi
	
	trait = race_human
	trait = education_stewardship_2
	trait = arrogant
	trait = brave
	trait = zealous
	
	954.9.24 = {
		birth = yes
	}
	
	990.8.3 = { # Derwing Executions
		death = {
			death_reason = death_execution
		}
	}
}

gerwick_0002 = { # Lord Carlan Gerwick
	name = "Carlan"
	dynasty = dynasty_gerwick
	religion = gawedi_temple
	culture = gawedi
	
	trait = race_human
	trait = education_diplomacy_3
	trait = patient
	trait = temperate
	trait = cynical
	
	father = gerwick_0001
	
	974.4.3 = {
		birth = yes
	}
	
	991.7.11 = {
		add_spouse = humbercroft_0003
	}
}

gerwick_0003 = { # Jon Gerwick
	name = "Jon"
	dynasty = dynasty_gerwick
	religion = gawedi_temple
	culture = gawedi
	
	trait = race_human
	trait = education_martial_2
	trait = wrathful
	trait = stubborn
	trait = paranoid
	trait = aggressive_attacker
	
	father = gerwick_0002
	mother = humbercroft_0003
	
	995.9.10 = {
		birth = yes
	}
	
	1016.2.8 = {
		add_spouse = alenath_0003
	}
}

gerwick_0004 = { # Catherine Gerwick
	name = "Catherine"
	dynasty = dynasty_gerwick
	religion = gawedi_temple
	culture = gawedi
	female = yes
	
	trait = race_human
	trait = charming
	
	father = gerwick_0003
	mother = alenath_0003
	
	1013.8.21 = {
		birth = yes
	}
}

gerwick_0005 = { # Welyam Gerwick
	name = "Welyam"
	dynasty = dynasty_gerwick
	religion = gawedi_temple
	culture = gawedi
	
	trait = race_human
	trait = bossy
	
	father = gerwick_0003
	mother = alenath_0003
	
	1017.7.15 = {
		birth = yes
	}
}

alenath_0001 = { # Tomar Sil Alenath, Duke of Ginnfield
	name = "Tomar"
	dynasty = dynasty_alenath
	religion = gawedi_temple
	culture = gawedi
	
	trait = race_human
	trait = education_diplomacy_3
	trait = wrathful
	trait = honest
	trait = gregarious 
	
	967.9.1 = {
		birth = yes
	}
	
	990.2.19 = {
		add_spouse = westpier_0001
	}
}

westpier_0001 = { # Sofia Wespier, Lady of Ginnfield 
	name = "Sofia"
	dynasty = dynasty_westpier
	religion = gawedi_temple
	culture = gawedi
	female = yes
	
	trait = race_human
	trait = education_diplomacy_3
	trait = patient
	trait = temperate
	trait = cynical
	
	970.1.9 = {
		birth = yes
	}
	
	990.2.19 = {
		add_spouse = alenath_0001
	}
}

alenath_0002 = { # Crovis Sil Alenath, Heir to Ginnfield 
	name = "Crovis"
	dynasty = dynasty_alenath
	religion = gawedi_temple
	culture = gawedi
	
	trait = race_human
	trait = education_martial_2
	trait = brave
	trait = gregarious
	trait = wrathful
	
	father = alenath_0001
	mother = westpier_0001
	
	995.3.16 = {
		birth = yes
	}
	
	1021.1.8 = {
		effect = {
			set_relation_soulmate = character:alenath_0004
		}
		add_spouse = alenath_0004
	}
}

alenath_0003 = { # Anne Sil Alenath, Daughter of Sofia and Tomar 
	name = "Anne"
	dynasty = dynasty_alenath
	religion = gawedi_temple
	culture = gawedi
	female = yes
	
	trait = race_human
	trait = education_diplomacy_2
	trait = ambitious
	trait = paranoid
	trait = stubborn
	trait = human_purist
	
	father = alenath_0001
	mother = westpier_0001
	
	997.6.23 = {
		birth = yes
	}
	
	1016.2.8 = {
		add_spouse = gerwick_0003
	}
}

alenath_0004 = { # Varinna, elven wife of Crovis 
	name = "Varinna"
	religion = elven_forebears
	culture = moon_elvish
	female = yes
	
	trait = race_elf
	trait = education_learning_3
	trait = compassionate
	trait = gregarious
	trait = content
	trait = lifestyle_physician
	
	930.2.16 = {
		birth = yes
	}
}

ginnfield_0001 = { # Humbert Ginnfield, Lord of Ginnfield
	name = "Humbert"
	dynasty = dynasty_ginnfield
	religion = gawedi_temple
	culture = gawedi
	
	trait = race_human
	trait = education_martial_3
	trait = diligent
	trait = forgiving
	trait = humble 
	
	990.4.1 = {
		birth = yes
	}
	
	1010.5.2 = {
		add_spouse = wight_0001
	}
}

wight_0001 = { # Clarya Wight, Lady of Ginnfield
	name = "Clarya"
	dynasty_house = house_wight
	religion = moors_cult
	culture = moorman
	female = yes 
	
	trait = race_human
	trait = education_stewardship_2
	trait = greedy
	trait = forgiving
	trait = compassionate 
	
	990.4.1 = {
		birth = yes
	}
	
	1010.5.2 = {
		add_spouse = ginnfield_0001
	}
}

ginnfield_0002 = { # Ottrac of Ginnfield
	name = "Ottrac"
	dynasty = dynasty_ginnfield
	religion = gawedi_temple
	culture = gawedi
	
	trait = race_human
	trait = rowdy
	
	father = ginnfield_0001
	mother = wight_0001 
	
	1011.7.1 = {
		birth = yes
	}
}

ginnfield_0003 = { # Cora of Ginnfield
	name = "Cora"
	dynasty = dynasty_ginnfield
	religion = gawedi_temple
	culture = gawedi
	female = yes 
	
	trait = race_human
	trait = rowdy
	
	father = ginnfield_0001
	mother = wight_0001 
	
	1013.8.12 = {
		birth = yes
	}
}

ginnfield_0004 = { # Jacob of Ginnfield
	name = "Jacob"
	dynasty = dynasty_ginnfield
	religion = gawedi_temple
	culture = gawedi
	
	trait = race_human
	trait = pensive
	
	father = ginnfield_0001
	mother = wight_0001 
	
	1015.9.13 = {
		birth = yes
	}
}

humbercroft_0001 = { # Walter Humbercroft
	name = "Walter"
	dynasty = dynasty_humbercroft
	religion = gawedi_temple
	culture = gawedi
	
	trait = race_human
	trait = education_stewardship_3
	trait = just
	trait = diligent
	trait = patient
	
	932.11.1 = {
		birth = yes
	}
	995.7.8 = {
		death = {
			death_reason = death_typhus
		}
	}
}

humbercroft_0002 = { # Rabard Humbercroft
	name = "Rabard"
	dynasty = dynasty_humbercroft
	religion = gawedi_temple
	culture = gawedi
	
	trait = race_human
	trait = education_stewardship_3
	trait = just
	trait = temperate
	trait = content
	
	father = humbercroft_0001
	
	972.11.1 = {
		birth = yes
	}
	996.4.11 = {
		add_spouse = humbercroft_0004
	}
	1008.10.28 = {
		death = {
			death_reason = death_killed_war_of_sorcerer_king
		}
	}
}

humbercroft_0003 = { # Adeline Humbercroft
	name = "Adeline"
	dynasty = dynasty_humbercroft
	religion = gawedi_temple
	culture = gawedi
	female = yes
	
	trait = race_human
	trait = education_stewardship_2
	trait = shy
	trait = temperate
	trait = content
	
	father = humbercroft_0001
	
	978.1.6 = {
		birth = yes
	}
	
	991.7.11 = {
		add_spouse = gerwick_0002
	}
}

humbercroft_0004 = { # Coralinde Wife of Rabard Humbercroft
	name = "Coralinde"
	# lowborn
	religion = gawedi_temple
	culture = gawedi
	female = yes
	
	trait = race_human
	trait = education_intrigue_3
	trait = patient
	trait = deceitful
	trait = sadistic
	trait = beauty_good_2
	
	978.7.2 = {
		birth = yes
	}
	
	996.4.11 = {
		add_spouse = humbercroft_0002
	}
}

humbercroft_0005 = { # Camor Humbercroft
	name = "Camor"
	dynasty = dynasty_humbercroft
	religion = gawedi_temple
	culture = gawedi
	
	father = humbercroft_0002
	mother = humbercroft_0004
	
	trait = race_human
	trait = pensive
	trait = beauty_good_1
	
	1008.2.5 = {
		birth = yes
	}
}

lodan_0001 = { # Humbar Lodan, Lord of Lodan Crags
	name = "Humbar"
	dynasty_house = house_lodan
	sexuality = homosexual
	religion = gawedi_temple
	culture = gawedi

	father = lodan_0002
	
	trait = race_human
	trait = education_martial_2
	trait = calm
	trait = diligent
	trait = gregarious
	trait = poet
	trait = unyielding_defender
	
	986.11.2 = {
		birth = yes
	}
	
	1007.8.21 = {
		add_spouse = floodmark_0002
	}
}

lodan_0002 = { # Carl Lodan, Former Lord of Lodan Crags
	name = "Carl"
	dynasty_house = house_lodan
	sexuality = heteroexual
	religion = gawedi_temple
	culture = gawedi
	
	trait = race_human
	trait = education_martial_3
	trait = calm
	trait = brave
	trait = content
	trait = unyielding_defender
	trait = strategist
	trait = gallant
	
	951.1.4 = {
		birth = yes
	}
#	977.8.21 = {
#		add_spouse = westfield_0002
#	}
	1014.12.22 = {
		death = {
			death_reason = death_old_age
		}
	}
}

lodan_0003 = { # Rosamond Lodan, Heir to Lodan Crags
	name = "Rosamond"
	dynasty_house = house_lodan
	sexuality = asexual
	religion = gawedi_temple
	culture = gawedi
	female = yes
	
	father = lodan_0001
	mother = floodmark_0002

	trait = race_human
	trait = humble
	trait = gregarious
	trait = calm
	trait = lifestyle_gardener
	trait = pensive
	disallow_random_traits = yes
	
	1009.7.2 = {
		birth = yes
	}
}

lodan_0004 = { # Edith Lodan, Second Daughter
	name = "Edith"
	dynasty_house = house_lodan
	religion = gawedi_temple
	culture = gawedi
	female = yes
	
	father = lodan_0001
	mother = floodmark_0002
	trait = race_human
	trait = rowdy
	
	1017.12.29 = {
		birth = yes
	}
}

floodmark_0001 = { # Conric Floodmark, Lord of South Floodmarsh
	name = "Conric"
	dynasty = dynasty_floodmark
	sexuality = heterosexual
	religion = cult_of_ara
	culture = vertesker

	trait = race_human
	trait = education_stewardship_3
	trait = greedy
	trait = compassionate
	trait = patient
	trait = education_republican_knowledge_3
	trait = architect
	trait = loyal

	955.3.18 = {
		birth = yes
	}
}

floodmark_0002 = { # Atara Floodmark, Lady Consort of Lodan Crags
	name = "Atara"
	dynasty = dynasty_floodmark
	sexuality = heterosexual
	religion = gawedi_temple
	culture = vertesker
	female = yes

	father = floodmark_0001

	trait = race_human
	trait = education_learning_3
	trait = shy
	trait = diligent
	trait = patient
	trait = lifestyle_herbalist
	trait = lifestyle_gardener
	
	984.8.15 = {
		birth = yes
	}
	
	1014.12.2 = {
		effect = {
			set_relation_best_friend = character:eaglecrest_0029 # King Warde of Eaglecrest
		}
	}
#	1007.8.21 = {
#		add_spouse = wightsgate_0002
#	}
}

floodmark_0003 = { # Toman Floodmarsh, Heir to South Floodmarsh
	name = "Toman"
	dynasty = dynasty_floodmark
	religion = cult_of_ara
	culture = vertesker

	father = floodmark_0001

	trait = race_human
	trait = education_stewardship_1
	trait = humble
	trait = just
	trait = craven
	trait = improvident

	997.8.15 = {
		birth = yes
	}
}
