﻿60000 = { # Ida "the Mad"
	name = "Ida"
	dynasty = dynasty_beldarbronhd
	religion = castanorian_pantheon
	culture = marcher
	female = yes
	
	trait = race_human
	trait = vengeful
	trait = arbitrary
	trait = arrogant
	trait = disfigured
	trait = magical_affinity_2
	trait = education_martial_4
	
	967.6.17 = {
		birth = yes
	}
	
	1021.07.03 = {
		give_nickname = nick_the_accursed
	}
}

60001 = { # Lantsida the Chosen
	name = "Lantsida"
	dynasty = dynasty_beldarbronhd
	religion = castanorian_pantheon
	culture = ryalani
	female = yes
	
	trait = race_human
	trait = ambitious
	trait = deceitful
	trait = arrogant
	trait = beauty_bad_2
	trait = magical_affinity_1 # Not as strong as her "mentor" but she's sneakier
	trait = education_intrigue_4
	
	996.6.30 = {
		birth = yes
	}
	
	1022.1.1 = {
		set_mother = character:60000 # "Adopted" by Ida
	}
}

60002 = { # Willichar of Guidesway
	name = "Willichar"
	dynasty = dynasty_nurcedor
	religion = businori_cult
	culture = businori
	
	trait = race_human
	trait = arrogant
	trait = callous
	trait = zealous
	trait = education_martial_4
	
	1002.11.21 = {
		birth = yes
	}
}

60003 = { # Rabac of Dostan’s Way
	name = "Rabac"
	dynasty = dynasty_wayguard
	religion = castanorian_pantheon
	culture = marcher
	
	trait = race_human
	trait = just
	trait = diligent
	trait = zealous
	trait = education_martial_1
	
	993.7.8 = {
		birth = yes
	}
	
	1010.4.30 = {
		add_spouse = 60004
	}
	
	1021.11.31 = {
		give_nickname = nick_the_liberator
	}
}

60004 = { # Rabac Wife
	name = "Sophia"
	religion = castanorian_pantheon
	culture = marcher
	female = yes
	
	trait = race_human
	
	995.12.1 = {
		birth = yes
	}
	
	988.3.14 = {
		add_spouse = 60003
	}
}

60005 = { # Bellac the old
	name = "Bellac"
	dynasty = dynasty_devaced
	religion = castanorian_pantheon
	culture = marcher
	
	trait = race_human
	trait = calm
	trait = stubborn
	trait = forgiving
	trait = education_diplomacy_2
	
	970.6.6 = {
		birth = yes
	}
	
	988.3.14 = {
		add_spouse = 60006
	}
	
	1021.11.31 = {
		give_nickname = nick_the_old
		#These tiles were conquered from him while he was in Anbenncost so he has claims
		add_pressed_claim = title:c_diremill
		add_pressed_claim = title:c_catelsvord
	}
}

60006 = { # Bellac Wife
	name = "Bellac"
	dynasty = dynasty_devaced
	religion = castanorian_pantheon
	culture = marcher
	female = yes
	
	trait = race_human
	trait = calm
	trait = stubborn
	trait = forgiving
	trait = education_diplomacy_2
	
	971.7.8 = {
		birth = yes
	}
	
	988.3.14 = {
		add_spouse = 60005
	}
}

60007 = { # Child 1
	name = "Christine"
	dynasty = dynasty_devaced
	religion = castanorian_pantheon
	culture = marcher
	female = yes
	
	father = 60005
	mother = 60006
	
	# ;)
	990.6.8 = {
		birth = yes
	}
}

60008 = { # Child 2
	name = "Bellac"
	dynasty = dynasty_devaced
	religion = castanorian_pantheon
	culture = marcher
	
	father = 60005
	mother = 60006
	
	992.5.22 = {
		birth = yes
	}
}

60009 = { # Child 3
	name = "Hulderic"
	dynasty = dynasty_devaced
	religion = castanorian_pantheon
	culture = marcher
	
	father = 60005
	mother = 60006
	
	993.7.18 = {
		birth = yes
	}
}

60010 = { # Child 4
	name = "Bertrada"
	dynasty = dynasty_devaced
	religion = castanorian_pantheon
	culture = marcher
	female = yes
	
	father = 60005
	mother = 60006
	
	995.1.10 = {
		birth = yes
	}
}

60011 = {
	name = "Rogec"
	#TODO
	#dynasty = 
	religion = castanorian_pantheon
	#TODO
	culture = black_castanorian
	
	trait = race_human
	trait = arrogant
	trait = wrathful
	trait = sadistic
	trait = scarred
	trait = education_martial_4
	
	989.10.28 = {
		birth = yes
		effect = {
			set_variable = {
				name = false_convert
				value = faith:cult_of_agrados
			}
			add_piety = 300 # So he doesn't start at -200
		}
	}
}

60012 = {
	name = "Osnath"
	#TODO
	#dynasty = 
	religion = castanorian_pantheon
	#TODO
	culture = black_castanorian
	
	trait = race_human
	trait = paranoid
	trait = calm
	trait = deceitful
	trait = shrewd
	trait = education_intrigue_2
	
	986.1.7 = {
		birth = yes
		effect = {
			set_variable = {
				name = false_convert
				value = faith:cult_of_agrados
			}
		}
	}
}

60013 = {
	name = "Ulfric"
	#TODO
	#dynasty = 
	religion = castanorian_pantheon
	culture = black_castanorian
	
	trait = race_human
	trait = zealous
	trait = ambitious
	trait = chaste
	trait = education_stewardship_1
	
	1000.5.2 = {
		birth = yes
	}
}

60014 = {
	name = "Godryc"
	dynasty = dynasty_acengard
	religion = castanorian_pantheon
	culture = adeanic
	
	mother = 60016
	father = 60017
	
	trait = race_human
	trait = impatient
	trait = greedy
	trait = cynical
	trait = education_diplomacy_2
	
	998.6.4 = {
		birth = yes
	}
}

60015 = {
	name = "Lisban"
	dynasty = dynasty_acengard
	religion = castanorian_pantheon # TODO - Add event for her to join the cult
	culture = adeanic
	female = yes
	
	mother = 60016
	father = 60017
	
	trait = race_human
	trait = impatient
	trait = greedy
	trait = cynical
	trait = education_diplomacy_2
	
	995.4.21 = {
		birth = yes
		add_pressed_claim = title:d_cannwood
	}
}

60016 = {
	name = "Lisban"
	dynasty = dynasty_acengard
	religion = castanorian_pantheon
	culture = black_castanorian
	female = yes
	
	trait = race_human
	
	975.2.18 = {
		birth = yes
	}
}

60017 = {
	name = "Cecill"
	dynasty = dynasty_acengard
	religion = castanorian_pantheon
	culture = adeanic
	
	trait = race_human
	
	975.2.18 = {
		birth = yes
	}
}

#####ALDANMORE

61001 = {
	name = "Osric"
	dna = 61001_osric_of_aldenmore
	dynasty = dynasty_aldenmore #Aldenmore
	religion = "castanorian_pantheon"
	culture = "castanorian"

	diplomacy = 10
	martial = 6
	stewardship = 12
	intrigue = 7
	learning = 5
	prowess = 6

	trait = education_stewardship_3
	trait = greedy
	trait = ambitious
	trait = gregarious
	trait = race_human
	
	965.6.21 = {
		birth = yes
	}

	995.4.7 = {
		add_spouse = 61002
	}
	
}

61002 = {
	name = "Emma"
	religion = "castanorian_pantheon"
	culture = "castanorian"
	female = yes

	trait = education_diplomacy_3
	trait = gregarious
	trait = patient
	trait = sadistic
	
	trait = race_human
	
	973.9.11 = {
		birth = yes
	}
	
}

61003 = {
	name = "Caylen"
	dynasty = dynasty_aldenmore #Aldenmore
	religion = "castanorian_pantheon"
	culture = "castanorian"
	mother = 61002	#Emma
	father = 61001	#Osric

	trait = education_martial_2
	trait = arbitrary
	trait = brave
	trait = arrogant
	trait = lifestyle_blademaster
	trait = rakish
	trait = drunkard
	trait = athletic
	trait = race_human
	
	996.6.11 = {
		birth = yes
	}
	
}

61004 = {
	name = "Auci"
	dynasty = dynasty_aldenmore #Aldenmore
	religion = "castanorian_pantheon"
	culture = "castanorian"
	female = yes
	mother = 61002	#Emma
	father = 61001	#Osric

	trait = education_diplomacy_2
	trait = gregarious
	trait = compassionate
	trait = stubborn
	
	trait = race_human
	
	998.8.3 = {
		birth = yes
	}
	
}

61005 = {
	name = "Ekbert"
	dynasty = dynasty_aldenmore #Aldenmore
	religion = "castanorian_pantheon"
	culture = "castanorian"
	mother = 61002	#Emma
	father = 61001	#Osric

	trait = education_stewardship_3
	trait = content
	trait = honest
	trait = stubborn
	
	trait = race_human
	
	1000.3.25 = {
		birth = yes
	}
	
	1003.3.25 = {
		give_nickname = nick_the_spare
	}
	
}

61006 = {
	name = "Alaric"
	dynasty = dynasty_ryalfeld #Ryalfeld
	religion = "castanorian_pantheon"
	culture = "castanorian"
	father = 61007	#Tomac

	trait = education_martial_2
	trait = stubborn
	trait = vengeful
	trait = brave
	
	trait = race_human
	
	995.12.7 = {
		birth = yes
	}
	
	1019.3.11 = {
		add_pressed_claim = title:c_aldenmore
	}

	1021.11.31 = {
		employer = 89	#placeholder in absence of an accurate date
	}
}

61007 = {
	name = "Tomac"
	dynasty = dynasty_ryalfeld #Ryalfeld
	religion = "castanorian_pantheon"
	culture = "castanorian"

	trait = education_martial_2
	trait = gallant
	trait = just
	trait = content
	trait = temperate
	
	trait = race_human
	
	964.2.13 = {
		birth = yes
	}

	1019.3.11 = {
		death = "1019.3.11"
	}
}

escanni_0001 = {
	name = "Clotaire"
	dynasty = dynasty_sheldgard
	religion = "castanorian_pantheon"
	culture = "castanorian"

	trait = education_martial_3
	trait = brave
	trait = gregarious
	trait = compassionate
	trait = athletic
	trait = loyal
	
	982.3.13 = {
		birth = yes
	}
	
	1010.2.7 = {
		effect = {
			set_relation_friend = character:90
		}
		add_spouse = escanni_0002
	}
}

escanni_0002 = {
	name = "Edit"
	dynasty = dynasty_anor
	religion = "castanorian_pantheon"
	culture = "castanorian"
	female = yes
	
	trait = education_stewardship_2
	trait = temperate
	trait = gregarious
	trait = compassionate
	trait = administrator
	trait = race_human
	987.1.1 = {
		birth = yes
	}

	1010.2.7 = {
		effect = {
			set_relation_soulmate = character:escanni_0001
		}
		add_spouse = escanni_0001
	}
}

escanni_0003 = {
	name = "Lain"
	dynasty = dynasty_sheldgard
	religion = "castanorian_pantheon"
	culture = "castanorian"

	#TODO these are weird in game
	trait = brave
	trait = wrathful
	trait = charming
	trait = intellect_good_1
	
	father = escanni_0001
	mother = escanni_0002
	
	1010.11.9 = {
		birth = yes
	}
}

escanni_0004 = {
	name = "Rican"
	dynasty = dynasty_eswall
	religion = "castanorian_pantheon"
	culture = "castanorian"

	trait = education_intrigue_2
	trait = callous
	trait = ambitious
	trait = deceitful
	trait = race_human
	
	999.9.4 = {
		birth = yes
	}
	
	1020.1.1 = {
		effect = {
			add_pressed_claim = title:d_ardent_glade
			add_pressed_claim = title:c_cadells_rest
			add_pressed_claim = title:c_grenmore
			add_pressed_claim = title:c_ardent_keep
		}
	}
}

escanni_0005 = {
	name = "Arnulf"
	dynasty = dynasty_andhol
	religion = "cult_of_esmaryal"
	culture = "old_esmari"

	trait = education_martial_2 
	trait = greedy
	trait = gregarious
	trait = brave
	trait = adventurer
	trait = race_human 
	
	father = escanni_0008
	
	993.03.11 = {
		birth = yes
	}
}

escanni_0006 = {
	name = "Ulric"
	dynasty = dynasty_andhol
	religion = "cult_of_esmaryal"
	culture = "old_esmari"

	trait = education_martial_2 
	trait = zealous
	trait = diligent
	trait = paranoid
	trait = adventurer
	trait = race_human 
	
	father = escanni_0008

	995.06.19 = {
		birth = yes
	}
}

escanni_0007 = {
	name = "Stovan"
	dynasty = dynasty_hagstow
	religion = "castanorian_pantheon"
	culture = "castanorian"

	trait = education_martial_2 
	trait = just
	trait = compassionate
	trait = arrogant
	trait = lifestyle_hunter
	trait = athletic
	trait = race_human
	
	993.03.11 = {
		birth = yes
		effect = {
			give_witch_secret_or_trait_effect = yes
		}
	}
}

escanni_0008 = {
	name = "Ulfric"
	dynasty = dynasty_andhol
	religion = "cult_of_esmaryal"
	culture = "old_esmari"
	
	trait = education_learning_3
	trait = gregarious
	trait = arrogant
	trait = just
	trait = race_human
	
	955.04.05 = {
		birth = yes
	}
	
	1017.09.22 = {
		death = "1017.09.22"
	}
}

escanni_0009 = {
	name = "Beldun"
	dynasty = dynasty_vihteriz
	religion = "cult_of_balgar"
	culture = "stone_dwarvish"

	trait = education_stewardship_2 
	trait = diligent
	trait = gluttonous
	trait = arrogant
	trait = administrator
	trait = athletic
	trait = race_dwarf

	899.06.03 = {
		birth = yes
	}
}

escanni_0010 = {
	name = "Ottrac"
	dynasty = dynasty_mascabir
	religion = "castanorian_pantheon"
	culture = "patrician"

	trait = education_diplomacy_2
	trait = honest
	trait = calm 
	trait = craven 
	trait = race_human  

	968.02.11 = {
		birth = yes
	}
}

escanni_0011 = {
	name = "Ulv"
	dynasty = dynasty_marromarck
	religion = "castanorian_pantheon"
	culture = "black_castanorian"

	trait = education_stewardship_3
	trait = lustful 
	trait = callous 
	trait = stubborn
	trait = magical_affinity_1	
	trait = race_human  
	
	father = escanni_0012

	970.07.23 = {
		birth = yes
	}
}

escanni_0012 = {
	name = "Otto"
	dynasty = dynasty_marromarck
	religion = "castanorian_pantheon"
	culture = "black_castanorian"

	trait = education_stewardship_3
	trait = lazy 
	trait = content 
	trait = generous
	trait = magical_affinity_2	
	trait = race_human  

	944.01.23 = {
		birth = yes
	}
	1003.03.07 = {
		death = "1003.03.07"
	}
}

escanni_0013 = {
	name = "Sigrid"
	dynasty = dynasty_marromarck
	religion = "castanorian_pantheon"
	culture = "black_castanorian"
	female = yes 

	trait = education_learning_3
	trait = paranoid 
	trait = arrogant 
	trait = diligent
	trait = magical_affinity_2
	trait = legitimized_bastard
	trait = race_human  
	
	father = escanni_0011

	1001.09.12 = {
		birth = yes
	}
}

escanni_0014 = {
	name = "Yrsia"
	dynasty = dynasty_marromarck
	religion = "castanorian_pantheon"
	culture = "black_castanorian"
	female = yes 

	trait = education_intrigue_3
	trait = deceitful 
	trait = gregarious 
	trait = chaste
	trait = magical_affinity_1
	trait = legitimized_bastard
	trait = race_human  
	
	father = escanni_0011

	1004.12.02 = {
		birth = yes
 	}
}

escanni_0015 = {
	name = "Eldrid"
	dynasty = dynasty_marromarck
	religion = "castanorian_pantheon"
	culture = "black_castanorian"
	female = yes 

	trait = beauty_good_1 
	trait = legitimized_bastard
	trait = race_human  
	
	father = escanni_0011

	1018.04.11 = {
		birth = yes
 	}
}

escanni_0016 = { # count of westgate
	name = "Ansovald"
	dynasty = dynasty_elentis
	religion = "luna_damish"
	culture = "old_damerian"

	trait = education_martial_3
	trait = patient
	trait = greedy	
	trait = cynical 
	trait = adventurer
	trait = military_engineer
	trait = disinherited
	trait = race_human  
	
	father = damerian7033

	993.02.13 = {
		birth = yes
	}
}

escanni_0017 = { # count of rigelham
	name = "TomA_s"
	dynasty = dynasty_dhaneir
	religion = "luna_damish"
	culture = "damerian"

	trait = education_intrigue_4
	trait = callous
	trait = gregarious	
	trait = ambitious 
	trait = murderer
	trait = beauty_good_1
	trait = disinherited
	trait = race_human  
	
	father = damerian7030

	989.07.24 = {
		birth = yes
	}
}

#here be Marrhold 
escanni_0018 = { # dead heir of Marrhold 
	name = "Godric"
	dynasty = dynasty_marr
	religion = "castanorian_pantheon"
	culture = "marrodic"

	trait = education_martial_4
	trait = brave
	trait = wrathful	
	trait = cynical 
	trait = unyielding_defender
	trait = strong
	trait = race_human  
	
	father = 91

	987.02.24 = {
		birth = yes
	}
		1013.10.3 = {
		death = "1013.08.3"
	}
}

escanni_0019 = { # the heir of Marrhold
	name = "Alen"
	dynasty = dynasty_marr
	religion = "castanorian_pantheon"
	culture = "marrodic"

	trait = education_stewardship_4
	trait = diligent
	trait = honest	
	trait = temperate 
	trait = twin
	trait = physique_good_1
	trait = race_human  
	
	father = 91

	998.03.11 = {
		birth = yes
	}
}

escanni_0020 = { # the spare of Marrhold
	name = "Elec"
	dynasty = dynasty_marr
	religion = "castanorian_pantheon"
	culture = "marrodic"

	trait = education_martial_4
	trait = brave
	trait = zealous	
	trait = temperate 
	trait = twin
	trait = lifestyle_blademaster
	trait = physique_good_1
	trait = race_human  
	
	father = 91

	998.03.11 = {
		birth = yes
	}
}

escanni_0021 = { # the spare spare of Marrhold
	name = "Frederic"
	dynasty = dynasty_marr
	religion = "castanorian_pantheon"
	culture = "marrodic"

	trait = education_diplomacy_3
	trait = compassionate
	trait = gregarious	
	trait = patient 
	trait = scarred
	trait = lifestyle_blademaster
	trait = bastard
	trait = race_human  
	
	father = 91

	999.07.23 = {
		birth = yes
	}
}

escanni_0022 = { # count of dryadsvale 
	name = "Peyter"
	dynasty = dynasty_dryadsvale 
	religion = "castanorian_pantheon"
	culture = "marrodic"
	
	intrigue = 6
	trait = education_martial_4
	trait = deceitful
	trait = cynical	
	trait = content  
	trait = unyielding_defender
	trait = lifestyle_blademaster
	trait = race_human  

	979.11.23 = {
		birth = yes
	}
}

escanni_0023 = { # eldest daughter of Peyter
	name = "Robyn"
	dynasty = dynasty_dryadsvale
	religion = "castanorian_pantheon"
	culture = "marrodic"
	female = yes

	trait = education_diplomacy_2
	trait = temperate
	trait = compassionate	
	trait = generous 
	trait = race_human  
	
	father = escanni_0022
	mother = escanni_0026

	997.11.23 = {
		birth = yes
	}
}

escanni_0024 = { # heir of Dryadsvale 
	name = "Corric"
	dynasty = dynasty_dryadsvale
	religion = "castanorian_pantheon"
	culture = "marrodic"

	trait = education_martial_1
	trait = brave
	trait = honest	
	trait = lazy 
	trait = lifestyle_blademaster
	trait = race_human  
	
	father = escanni_0022
	mother = escanni_0026

	1000.02.11 = {
		birth = yes
	}
}

escanni_0025 = { # second daughter of Peyter
	name = "Cora"
	dynasty = dynasty_dryadsvale
	religion = "castanorian_pantheon"
	culture = "marrodic"
	female = yes

	trait = education_learning_3
	trait = diligent
	trait = honest 	
	trait = stubborn
	trait = intellect_good_1	
	trait = race_human  
	
	father = escanni_0022
	mother = escanni_0026

	1002.03.23 = {
		birth = yes
	}
}

escanni_0026 = { # countess of dryadsvale 
	name = "Robyn"
	dynasty = dynasty_wendshaw  
	religion = "castanorian_pantheon"
	culture = "marrodic"
	female = yes 
	
	trait = education_diplomacy_2
	trait = temperate
	trait = craven	
	trait = compassionate  
	trait = race_human  

	980.01.23 = {
		birth = yes
	}

	996.9.13 = {
		add_spouse = escanni_0022
	}
}

escanni_0027 = { # duke of Hornwood
	name = "Welyam"
	dynasty = dynasty_griffonsquarrel 
	religion = "castanorian_pantheon"
	culture = "marrodic"
	
	trait = race_human 
	trait = education_martial_3
	trait = paranoid
	trait = vengeful	
	trait = humble  
	trait = human_purist  
	

	988.06.24 = {
		birth = yes
	}
}

escanni_0028 = { # heir of Hornwood 
   name = "Ottran"
	dynasty = dynasty_griffonsquarrel 
	religion = "castanorian_pantheon"
	culture = "marrodic"
	
	trait = race_human  
	
	father = escanni_0027
	mother = escanni_0029

	1019.09.27 = {
		birth = yes
	}
}

escanni_0029 = { # duchess of hornwood and daugher of Luder
	name = "Adela"
	dynasty = dynasty_willowmore
	religion = "castanorian_pantheon"
	culture = "marrodic"
	female = yes
	
	trait = race_human
	trait = education_stewardship_2
	trait = paranoid
	trait = stubborn
	trait = diligent
	trait = human_purist
	
	father = escanni_0030
	
	994.02.12 = {
		birth = yes
	}
	107.05.13 = {
		add_spouse = escanni_0027
	}
}

escanni_0030 = { # count of Willowmore 
	name = "Luder"
	dynasty = dynasty_willowmore
	religion = "castanorian_pantheon"
	culture = "marrodic"

	trait = education_stewardship_1
	trait = chaste
	trait = craven	
	trait = arrogant 
	trait = race_human  

	969.08.11 = {
		birth = yes
	}
}

escanni_0031 = { # heir to willowmore
	name = "Ottran"
	dynasty = dynasty_willowmore
	religion = "castanorian_pantheon"
	culture = "marrodic"

	trait = education_stewardship_1
	trait = patient
	trait = ambitious	
	trait = arrogant 
	trait = legitimized_bastard
	trait = race_human  
	
	father = escanni_0030

	995.05.02 = {
		birth = yes
	}
}
	
escanni_0032 = { # countess of doesecker
	name = "Mathilde"
	dynasty = dynasty_tailfeather
	religion = "castanorian_pantheon"
	culture = "marrodic"
	female = yes 

	trait = education_martial_3
	trait = brave
	trait = vengeful	
	trait = temperate
	trait = forest_fighter
	trait = race_human  
   
	father = escanni_0033
	
	995.05.19 = {
		birth = yes
	}
}

escanni_0033 = { # old count of doesecker
	name = "Corric"
	dynasty = dynasty_tailfeather
	religion = "castanorian_pantheon"
	culture = "marrodic"

	trait = education_martial_3
	trait = brave
	trait = wrathful	
	trait = humble
	trait = forest_fighter
	trait = lifestyle_blademaster
	trait = race_human  

	973.11.19 = {
		birth = yes
	}
			1012.03.07 = {
		death = "1012.03.07"
	}
}

hornwood_0001 = { # count of Hornwood
	name = "Tomac"
	dynasty = dynasty_hornwood
	religion = "castanorian_pantheon"
	culture = "marrodic"

	trait = education_intrigue_2
	trait = callous
	trait = cynical	
	trait = temperate
	trait = race_human  

	980.07.01 = {
		birth = yes
	}
}

hornwood_0002 = { # first child of tomac 
	name = "Coraline"
	dynasty = dynasty_hornwood
	religion = "castanorian_pantheon"
	culture = "marrodic"

	trait = education_intrigue_1
	trait = impatient
	trait = sadistic	
	trait = cynical
	trait = race_human  
	
	father = hornwood_0001

	1006.11.01 = {
		birth = yes
	}
}

hornwood_0003 = { # heir of tomac 
	name = "Camor"
	dynasty = dynasty_hornwood
	religion = "castanorian_pantheon"
	culture = "marrodic"

	trait = bossy
	
	father = hornwood_0001

	1004.12.13 = {
		birth = yes
	}
}

escanni_0037 = {
	name = "Acromar"
	dynasty = dynasty_adenica
	religion = "adenican_adean"
	culture = "adeanic"

	trait = education_martial_4 
	trait = stubborn
	trait = gregarious
	trait = brave
	trait = open_terrain_expert
	trait = maimed
	trait = one_eyed
	trait = race_human
	
	961.05.10 = {
		birth = yes
	}

	986.11.29 = {
		add_spouse = escanni_0042
	}

	999.09.09 = {
		give_nickname = nick_the_stallion
	}
}

escanni_0038 = {
	name = "Robyn"
	dynasty = dynasty_adenica
	religion = "adenican_adean"
	culture = "adeanic"
	
	father = escanni_0037
	mother = escanni_0042

	trait = education_stewardship_4 
	trait = calm
	trait = diligent
	trait = humble
	trait = lifestyle_physician
	trait = weak
	trait = shrewd
	trait = disinherited
	trait = race_human
	
	993.02.04 = {
		birth = yes
	}

	1016.04.09 = {
		add_spouse = escanni_0040
	}
}

escanni_0039 = {
	name = "Rycan"
	dynasty = dynasty_adenica
	religion = "adenican_adean"
	culture = "adeanic"

	father = escanni_0037
	mother = escanni_0042

	trait = education_martial_prowess_4
	trait = calm
	trait = diligent
	trait = humble
	trait = lifestyle_blademaster
	trait = strong
	trait = race_human
	
	998.12.02 = {
		birth = yes
	}

	1012.12.12 = {
		give_nickname = nick_the_colt
	}
}

escanni_0040 = {
	name = "Etta"
	religion = "adenican_adean"
	culture = "adeanic"
	female = yes

	trait = education_stewardship_3
	trait = greedy
	trait = patient
	trait = gregarious
	trait = race_human
	
	993.06.05 = {
		birth = yes
	}

	1016.04.09 = {
		add_spouse = escanni_0038 #Robyn of Adenica
	}
}

escanni_0041 = {
	name = "Dustyn"
	dynasty = dynasty_adenica
	religion = "adenican_adean"
	culture = "adeanic"

	trait = race_human

	father = escanni_0038
	mother = escanni_0040

	1019.10.05 = {
		birth = yes
	}
}

escanni_0042 = {
	name = "Eleanor"
	dynasty = dynasty_shieldrest
	religion = "adenican_adean"
	culture = "adeanic"
	female = yes

	trait = education_learning_2
	trait = calm
	trait = trusting
	trait = compassionate
	trait = journaller
	trait = lifestyle_physician
	trait = race_human

	966.03.12 = {
		birth = yes
	}

	986.11.29 = {
		add_spouse = escanni_0037
	}
}

escanni_0043 = {
	name = "Olor"
	dynasty = dynasty_casnaview
	religion = "court_of_adean"
	culture = "entebenic"

	father = 20006
	mother = 20008

	trait = education_martial_3
	trait = brave
	trait = gregarious
	trait = wrathful
	trait = reckless
	trait = disinherited
	trait = race_human

	997.05.08 = {
		birth = yes
	}

	1016.6.2 = {
		set_relation_friend = character:escanni_0039
	}
}

escanni_0044 = {
	name = "Rogec"
	dynasty = dynasty_mireleigh
	religion = "adenican_adean"
	culture = "adeanic"

	father = escanni_0046

	trait = education_stewardship_1
	trait = content
	trait = shy
	trait = paranoid
	trait = lunatic_1
	trait = reclusive
	trait = infirm
	trait = race_human

	954.03.01 = {
		birth = yes
	}
}

escanni_0045 = {
	name = "Carlan"
	dynasty = dynasty_mireleigh
	religion = "adenican_adean"
	culture = "adeanic"

	father = escanni_0046

	trait = education_martial_2
	trait = fickle
	trait = cynical
	trait = just
	trait = race_human

	971.11.11 = {
		birth = yes
	}
}

escanni_0046 = {
	name = "Humbar"
	dynasty = dynasty_mireleigh
	religion = "adenican_adean"
	culture = "adeanic"

	trait = race_human

	941.06.23 = {
		birth = yes
	}

	1012.06.01 = {
		death = "1012.06.01"
	}
}

escanni_0047 = {
	name = "Adela"
	dynasty = dynasty_falseharbour
	religion = "adenican_adean"
	culture = "adeanic"
	female = yes

	trait = education_learning_1
	trait = humble
	trait = zealous
	trait = honest
	trait = race_human

	975.12.03 = {
		birth = yes
	}

	966.04.03 = {
		add_spouse = escanni_0045
	}


}

escanni_0048 = {
	name = "Constance"
	dynasty = dynasty_mireleigh
	religion = "adenican_adean"
	culture = "adeanic"
	female = yes

	father = escanni_0045
	mother = escanni_0047

	trait = education_stewardship_1
	trait = content
	trait = shy
	trait = arbitrary
	trait = race_human

	999.12.13 = {
		birth = yes
	}

	1017.08.17 = {
		add_spouse = escanni_0049
	}

}

escanni_0049 = {
	name = "Arman"
	dynasty = dynasty_vernid
	religion = "vernid_adean"
	culture = "vernid"

	father = vernid_0002

	trait = education_martial_2
	trait = brave
	trait = just
	trait = temperate
	trait = bastard
	trait = scarred
	trait = lifestyle_blademaster
	trait = race_human

	999.03.18 = {
		birth = yes
	}

	1017.08.17 = {
		add_spouse = escanni_0048
	}

}

escanni_0050 = {
	name = "Stovac"
	dynasty = dynasty_taranton
	religion = "adenican_adean"
	culture = "adeanic"

	trait = education_diplomacy_2
	trait = patient
	trait = deceitful
	trait = ambitious
	trait = race_human

	983.11.11 = {
		birth = yes
	}

	1004.03.08 = {
		add_spouse = escanni_0051
	}
}

escanni_0051 = {
	name = "Lisbet"
	dynasty = dynasty_acenaire
	religion = "adenican_adean"
	culture = "adeanic"
	female = yes

	trait = education_stewardship_3
	trait = calm
	trait = stubborn
	trait = forgiving
	trait = race_human

	984.04.01 = {
		birth = yes
	}

	1004.03.08 = {
		add_spouse = escanni_0050
	}
}

escanni_0052 = {
	name = "Godwin"
	dynasty = dynasty_taranton
	religion = "adenican_adean"
	culture = "adeanic"

	father = escanni_0050
	mother = escanni_0051

	trait = charming
	trait = twin
	trait = race_human

	1010.05.25 = {
		birth = yes
	}
}

escanni_0053 = {
	name = "Godrac"
	dynasty = dynasty_taranton
	religion = "adenican_adean"
	culture = "adeanic"

	father = escanni_0050
	mother = escanni_0051

	trait = rowdy
	trait = twin
	trait = race_human

	1010.05.25 = {
		birth = yes
	}
}

escanni_0054 = {
	name = "Edmund"
	dynasty = dynasty_taranton
	religion = "adenican_adean"
	culture = "adeanic"

	father = escanni_0050
	mother = escanni_0051

	trait = pensive
	trait = race_human

	1014.01.07 = {
		birth = yes
	}
}

escanni_0055 = {
	name = "Brandon"
	dynasty = dynasty_eastbow
	religion = "cult_of_the_dame"
	culture = "old_damerian"

	trait = education_martial_2
	trait = patient
	trait = compassionate
	trait = content
	trait = scarred
	trait = lifestyle_hunter
	trait = race_human

	981.02.14 = {
		birth = yes
	}
	1006.01.01 = {
		add_spouse = escanni_0057
	}

	1010.06.23 = {
		give_nickname = nick_truesight
	}
}

escanni_0056 = {
	name = "Austyn"
	dynasty = dynasty_eastbow
	religion = "cult_of_the_dame"
	culture = "old_damerian"

	father = escanni_0055
	mother = escanni_0057

	trait = education_martial_2
	trait = brave
	trait = diligent
	trait = impatient
	trait = race_human

	1007.01.02 = {
		birth = yes
	}
}

escanni_0057 = {
	name = "Cora"
	religion = "cult_of_the_dame"
	culture = "old_damerian"
	female = yes

	trait = education_diplomacy_1
	trait = humble
	trait = temperate
	trait = content
	trait = race_human

	981.04.12 = {
		birth = yes
	}
	1006.01.01 = {
		add_spouse = escanni_0055
	}
}

escanni_0058 = {
	name = "Humbac"
	dynasty = dynasty_cantercurse
	religion = "adenican_adean"
	culture = "adeanic"

	trait = education_martial_2
	trait = trusting
	trait = brave
	trait = stubborn
	trait = race_human

	984.10.10 = {
		birth = yes
	}
	1012.06.13 = {
		add_spouse = escanni_0059
	}
}

escanni_0059 = {
	name = "Marina"
	dynasty = dynasty_castlebridge
	religion = "cult_of_ara"
	culture = "crownsman"
	female = yes

	trait = education_diplomacy_2
	trait = trusting
	trait = brave
	trait = stubborn
	trait = race_human

	987.03.11 = {
		birth = yes
	}
	1012.06.13 = {
		add_spouse = escanni_0058
	}
}

escanni_0060 ={
	name = "Devan"
	dynasty = dynasty_cantercurse
	religion = "adenican_adean"
	culture = "adeanic"

	father = escanni_0058
	mother = escanni_0059

	trait = physique_bad_2
	trait = pensive
	trait = race_human

	1009.01.29 = {
		birth = yes
	}
}

escanni_0061 ={
	name = "Clarya"
	dynasty = dynasty_cantercurse
	religion = "adenican_adean"
	culture = "adeanic"
	female = yes

	father = escanni_0058
	mother = escanni_0059

	trait = shrewd
	trait = bossy
	trait = race_human

	1012.02.15 = {
		birth = yes
	}
}

escanni_0062 = {
	name = "Walter"
	dynasty = dynasty_rohibon
	religion = "adenican_adean"
	culture = "adeanic"

	trait = education_learning_4
	trait = stubborn
	trait = patient
	trait = diligent
	trait = race_human

	983.07.13 = {
		birth = yes
	}

	1013.03.03 = {
		add_spouse = escanni_0063
	}
}

escanni_0063 = {
	name = "Iserandel"
	dynasty = dynasty_shoreseeker
	religion = "elven_forebears"
	culture = "moon_elvish"
	female = yes

	trait = education_learning_2
	trait = humble
	trait = diligent
	trait = gregarious
	trait = race_elf

	889.03.21 = {
		birth = yes
	}

	1013.03.03 = {
		add_spouse = escanni_0062
	}
}

escanni_0064 = {
	name = "Tomac"
	dynasty = dynasty_rohibon
	religion = "adenican_adean"
	culture = "adeanic"

	father = escanni_0062
	mother = escanni_0063

	trait = pensive
	trait = race_half_elf

	1011.07.03 = {
		birth = yes
	}
}

escanni_0065 = {
	name = "Ariathra"
	dynasty = dynasty_rohibon
	religion = "adenican_adean"
	culture = "adeanic"

	father = escanni_0062
	mother = escanni_0063

	trait = charming
	trait = race_half_elf

	1013.11.27 = {
		birth = yes
	}
}

escanni_0066 = {
	name = "Marcan"
	dynasty = dynasty_rohibon
	religion = "adenican_adean"
	culture = "adeanic"

	father = escanni_0062
	mother = escanni_0063

	trait = charming
	trait = race_half_elf

	1016.07.18 = {
		birth = yes
	}
}

escanni_0067 = {
	name = "Calassa"
	dynasty = dynasty_rohibon
	religion = "adenican_adean"
	culture = "adeanic"
	female = yes

	father = escanni_0062
	mother = escanni_0063

	trait = charming
	trait = race_half_elf

	1018.02.13 = {
		birth = yes
	}
}

haightbobben0001 = {
	name = "Kenneth"
	dynasty = dynasty_haightbobben
	martial = 15
	prowess = 14
	diplomacy = 2
	stewardship = 3
	intrigue = 1
	learning = 1
	religion = "the_thought"
	culture = "black_castanorian"

	trait = education_martial_2
	trait = paranoid
	trait = stubborn
	trait = gregarious
	trait = flexible_leader
	trait = drunkard
	trait = lifestyle_reveler
	trait = lunatic_genetic
	trait = scarred
	
	trait = race_human
	
	982.2.25 = {
		birth = yes
	}
	
	1021.11.31 = {
		employer = 61
		give_council_position = councillor_marshal
		# add_pressed_claim = title:c_haighbobben # uncomment when it's added back
	}
}

escanni_0068 = { # count of Gallopsway
	name = "Tomac"
	dynasty = dynasty_gallopsway
	religion = "adenican_adean"
	culture = "adeanic"

	trait = education_martial_2
	trait = brave
	trait = cynical
	trait = patient
	trait = race_human 

	997.7.28 = {
		birth = yes
	}
	1021.9.30 = {
		add_spouse = escanni_0069
	}
}

escanni_0069 = { # wife of tomac 
	name = "Bella"
	religion = "castanorian_pantheon"
	culture = "castanorian"
	female = yes

	trait = education_intrigue_3
	trait = stubborn
	trait = compassionate
	trait = brave 
	trait = race_human 

	1000.5.7 = {
		birth = yes
	}
	1021.9.30 = {
		add_spouse = escanni_0068
	}
}

giantswood_0001 = { # count of Acenort and Nortwood
	name = "Hulderic"
	dynasty = dynasty_giantswood
	religion = "castanorian_pantheon"
	culture = "castanorian"

	trait = education_martial_1
	trait = arbitrary
	trait = vengeful	
	trait = patient
	trait = lifestyle_hunter
	trait = lifestyle_blademaster
	trait = race_human  

	991.03.09 = {
		birth = yes
	}
	
	1021.11.31 = {
		#Ancestral lands of the family 
		add_pressed_claim = title:c_giantswood
	}
}

giantswood_0002 = { # countess of Acenort and Northwood
	name = "Clothilde"
	religion = "castanorian_pantheon"
	culture = "castanorian"
	female = yes
	
	trait = race_human
	trait = education_stewardship_2
	trait = lazy
	trait = gluttonous	
	trait = humble
	trait = lifestyle_gardener
	
	1014.09.12 = {
		add_spouse = giantswood_0001
	}

	993.10.12 = {
		birth = yes
	}
}

giantswood_0003 = { # heir of Acenort and Northwood
	name = "Rican"
	dynasty = dynasty_giantswood
	religion = "castanorian_pantheon"
	culture = "castanorian"
	
	trait = rowdy
	trait = race_human  
	
	father = giantswood_0001
	mother = giantswood_0002

	1016.03.21 = {
		birth = yes
	}
}

drachongard_0001 = { # count of Hunter's folly
	name = "Rogec"
	dynasty = dynasty_drachongard
	religion = "castanorian_pantheon"
	culture = "black_castanorian"

	trait = education_martial_2
	trait = just
	trait = zealous	
	trait = humble
	trait = lifestyle_blademaster
	trait = race_human
	
	father = drachongard_0002	

	996.09.13 = {
		birth = yes
	}
}

drachongard_0002 = { # old count of Hunter's folly
	name = "Corric"
	dynasty = dynasty_drachongard
	religion = "castanorian_pantheon"
	culture = "black_castanorian"

	trait = education_diplomacy_2
	trait = just
	trait = temperate	
	trait = chaste
	trait = race_human  

	969.11.14 = {
		birth = yes
	}
	1015.1.7 = {
		death = "1015.1.7"
	}
}

khugsarod_0001 = { # count of Khugsroad
	name = "Orin"
	dynasty = dynasty_khugsarod
	religion = "ancestor_worship"
	culture = "agate_dwarvish"

	trait = education_stewardship_2
	trait = diligent
	trait = content	
	trait = calm
	trait = race_dwarf

	899.12.09 = {
		birth = yes
	}
	974.03.29 = {
		add_spouse = khugsarod_0002
	}
}

khugsarod_0002 = { # count of Khugsroad
	name = "Belga"
	religion = "cult_of_balgar"
	culture = "stone_dwarvish"
	female = yes

	trait = education_diplomacy_2
	trait = diligent
	trait = temperate	
	trait = zealous
	trait = race_dwarf

	878.03.11 = {
		birth = yes
	}
	
}

khugsarod_0003 = { # heir of Khugsroad
	name = "Gromar"
	dynasty = dynasty_khugsarod
	religion = "ancestor_worship"
	culture = "agate_dwarvish"

	trait = education_martial_3
	trait = brave
	trait = wrathful	
	trait = greedy
	trait = race_dwarf
	
	father = khugsarod_0001
	mother = khugsarod_0002

	968.03.27 = {
		birth = yes
	}
}

honeyaxe_0001 = { # count of Westwood
	name = "Cecil"
	dynasty = dynasty_honeyaxe
	religion = "small_temple"
	culture = "oakfoot_halfling" 

	trait = education_martial_3
	trait = wrathful
	trait = cynical
	trait = ambitious
	trait = poet
	trait = adventurer
	trait = race_halfling

	993.08.22 = {
		birth = yes
	}
	1019.08.22 = {
		add_spouse = honeyaxe_0002
	}
}

honeyaxe_0002 = { # count of Westwood
	name = "Clarya"
	religion = "small_temple"
	culture = "ciderfoot_halfling"
	female = yes

	trait = education_diplomacy_2
	trait = gregarious
	trait = deceitful
	trait = cynical
	trait = lifestyle_traveler
	trait = hashishiyah
	trait = race_halfling

	992.08.22 = {
		birth = yes
	}
}

trialwoud_0001 = { #countess of trialwood
	name = "Willamina"
	dynasty = dynasty_trialwoud
	religion = "castanorian_pantheon"
	culture = "castanorian" 
	female = yes

	trait = education_intrigue_4
	trait = diligent
	trait = deceitful
	trait = ambitious
	trait = shrewd
	trait = poet
	trait = race_human
	
	father = trialwoud_0002

	994.07.11 = {
		birth = yes
	}
	1017.08.22 = {
		add_matrilineal_spouse = shatterwood_0001
	}
}

trialwoud_0004 = {#matrineal marriage don't work, so kid for right dynasty
   name = "Godryc"
   dynasty = dynasty_trialwoud
   religion = "castanorian_pantheon"
   culture = "castanorian" 
   
   trait = race_human
   trait = intellect_good_1
   
   father = shatterwood_0001
   mother = trialwoud_0001

	1021.03.03 = {
		birth = yes
	}
}

trialwoud_0003 = { #countess of victorspath
	name = "Willamina"
	dynasty = dynasty_trialwoud
	religion = "castanorian_pantheon"
	culture = "castanorian" 
	female = yes

	trait = education_stewardship_1
	trait = honest
	trait = temperate
	trait = compassionate
	trait = race_human

	father = trialwoud_0002
	
	996.11.01 = {
		birth = yes
	}
	1014.12.03 = {
		add_spouse = serpentsmarck_0001
	}
}

trialwoud_0002 = { # old count of victorspath 
	name = "Godryc"
	dynasty = dynasty_trialwoud
	religion = "castanorian_pantheon"
	culture = "castanorian" 

	trait = education_martial_2
	trait = honest
	trait = temperate
	trait = brave
	trait = race_human

	977.05.12 = {
		birth = yes
	}
	1017.08.15 = {
		death = "1017.08.15"
	}
}

shatterwood_0001 = { #count of Shatterwood
	name = "Braedin"
	dynasty = dynasty_shatterwood
	religion = "castanorian_pantheon"
	culture = "black_castanorian" 

	trait = education_intrigue_2
	trait = arrogant
	trait = deceitful
	trait = ambitious
	trait = race_human
	
	father = shatterwood_0002

	992.03.27 = {
		birth = yes
	}
	1017.08.22 = {
		add_matrilineal_spouse = trialwoud_0001
	}
}

shatterwood_0002 = {
	name = "Ollor"
	dynasty = dynasty_shatterwood
	religion = "castanorian_pantheon"
	culture = "black_castanorian" 

	trait = education_diplomacy_3
	trait = trusting
	trait = honest
	trait = gregarious
	trait = cancer
	trait = race_human
	

	992.03.27 = {
		birth = yes
	}
	1015.10.31 = {
		death = "1015.10.27"
	}
}

shatterwood_0003 = { #count of Shatterwood
	name = "Ollor"
	dynasty = dynasty_shatterwood
	religion = "castanorian_pantheon"
	culture = "black_castanorian" 

	trait = education_martial_3
	trait = brave
	trait = just
	trait = honest
	trait = race_human
	
	father = shatterwood_0002

	989.07.25 = {
		birth = yes
	}
	1012.02.11 = {
		add_spouse = bradesford_0001
	}
	1015.10.31 = {
		death = {
			death_reason = death_killed_war_of_sorcerer_king
		}
	}
}

shatterwood_0004 = {
 	name = "Ragnak"
	dynasty = dynasty_shatterwood
	religion = "castanorian_pantheon"
	culture = "black_castanorian" 

	trait = rowdy
	trait = race_human
	
	father = shatterwood_0003
	mother = bradesford_0001

	1014.02.21 = {
		birth = yes
	}
	1020.02.22 = {
		effect = {
			set_relation_rival = character:shatterwood_0001
		}
	}
	1020.02.22 = {
		#Ancestral lands of his father and him after deposed by his uncle 
		add_pressed_claim = title:c_shatterwood
	}
}	

bradesford_0001 = { #old countess of shatterwood
	name = "Coralinde"
	dynasty = dynasty_bradesford
	religion = "castanorian_pantheon"
	culture = "castanorian" 
	female = yes 

	trait = education_intrigue_1
	trait = brave
	trait = just
	trait = honest
	trait = race_human
	
	990.10.03 = {
		birth = yes
	}
	1012.02.11 = {
		add_spouse = shatterwood_0003
	}
	1020.02.22 = {
		effect = {
			set_relation_rival = character:shatterwood_0001
		}
	}
}

serpentsmarck_0001 = {
	name = "Ollor"
	dynasty = dynasty_serpentsmarck
	religion = "castanorian_pantheon"
	culture = "black_castanorian" 

	trait = education_stewardship_1
	trait = honest
	trait = temperate
	trait = compassionate
	trait = race_human

	father = serpentsmarck_0006
	
	987.02.21 = {
		birth = yes
	}
	1014.12.03 = {
		add_spouse = trialwoud_0003
	}
}

serpentsmarck_0002 = {
 	name = "Otto"
	dynasty = dynasty_serpentsmarck
	religion = "castanorian_pantheon"
	culture = "black_castanorian" 

	trait = pensive
	trait = race_human
	
	father = serpentsmarck_0001
	mother = trialwoud_0003

	1016.06.29 = {
		birth = yes
	}
}

serpentsmarck_0003 = {
 	name = "Cora"
	dynasty = dynasty_serpentsmarck
	religion = "castanorian_pantheon"
	culture = "black_castanorian" 
	female = yes 

	trait = race_human
	
	father = serpentsmarck_0001
	mother = trialwoud_0003

	1019.07.23 = {
		birth = yes
	}
}

serpentsmarck_0004 = {
	name = "Patrik"
	dynasty = dynasty_serpentsmarck
	religion = "castanorian_pantheon"
	culture = "black_castanorian" 

	trait = education_martial_2
	trait = brave
	trait = gluttonous
	trait = honest
	trait = wounded_2
	trait = race_human

	father = serpentsmarck_0006
	
	987.02.21 = {
		birth = yes
	}
	1015.12.07 = {
		death = {
			death_reason = death_killed_war_of_sorcerer_king
		}
	}
}

serpentsmarck_0005 = {
	name = "Margery"
	dynasty = dynasty_serpentsmarck
	religion = "castanorian_pantheon"
	culture = "black_castanorian"
	female = yes

	trait = education_intrigue_2
	trait = brave
	trait = impatient
	trait = cynical
	trait = depressed_1
	trait = race_human

	father = serpentsmarck_0006
	
	995.08.22 = {
		birth = yes
	}
}

serpentsmarck_0006 = {
	name = "Edmund"
	dynasty = dynasty_serpentsmarck
	religion = "castanorian_pantheon"
	culture = "black_castanorian" 

	trait = education_martial_3
	trait = brave
	trait = just
	trait = honest
	trait = race_human

	
	961.05.19 = {
		birth = yes
	}
	1015.12.06 = {
		death = {
			death_reason = death_killed_war_of_sorcerer_king
		}
	}
}

nortmount_0001 = { #count of glory road
	name = "Tristan"
	dynasty = dynasty_nortmount
	religion = "court_of_adean"
	culture = "vernman"

	trait = education_martial_3
	trait = brave
	trait = calm
	trait = cynical
	trait = race_human
	trait = adventurer

	
	971.06.02 = {
		birth = yes
	}
	1019.03.22 = {
		add_spouse = hvitrvol_0001
	}
}

nortmount_0002 = { #count of glory road
	name = "Artur"
	dynasty = dynasty_nortmount
	religion = "court_of_adean"
	culture = "vernman"

	trait = education_martial_2
	trait = compassionate
	trait = gregarious
	trait = brave
	trait = race_human
	trait = adventurer
	trait = legitimized_bastard
	trait = beauty_good_1
	
	father = nortmount_0001

	
	994.10.21 = {
		birth = yes
	}
	1020.04.22 = {
		effect = {
			set_relation_lover = character:hvitrvol_0001
			set_relation_rival = character:nortmount_0001
		}
	}
}

nortmount_0003 = {
 	name = "Aria"
	dynasty = dynasty_nortmount
	religion = "court_of_adean"
	culture = "vernman" 
	female = yes 

	trait = race_human
	
	father = nortmount_0001
	mother = hvitrvol_0001

	1020.02.10 = {
		birth = yes
	}
}

nortmount_0004 = {
 	name = "Maurice"
	dynasty = dynasty_nortmount
	religion = "court_of_adean"
	culture = "vernman" 

	trait = race_human
	
	father = nortmount_0001
	mother = hvitrvol_0001

	1021.04.11 = {
		birth = yes
		set_real_father = character:nortmount_0002
		}
}

hvitrvol_0001 = {
	name = "Gertrud"
	dynasty = dynasty_hvitrvol
	religion = "castanorian_pantheon"
	culture = "black_castanorian" 
	female = yes 

	trait = education_learning_2
	trait = race_human
	trait = zealous
	trait = compassionate
	trait = shy
	trait = beauty_good_1
	
	995.03.11 = {
	birth = yes
		}
	1019.03.22 = {
		add_spouse = nortmount_0001
		effect = {
		set_relation_rival = character:nortmount_0001
	}
	}
}

ansson_0001 = {
	name = "Maelchon"
	dynasty = dynasty_ansson
	religion = castanorian_pantheon
	culture = black_castanorian
	
	diplomacy = 3
	martial = 9
	stewardship = 3
	intrigue = 7
	learning = 5
	prowess = 5
	
	trait = education_martial_4
	trait = ambitious
	trait = wrathful
	trait = arrogant
	trait = albino
	
	979.9.3 = {
		birth = yes
		
		set_global_variable = { name = castanorian_general value = this }
	}
}

ebenweal_0001 = { # Count Corric Ebenweal
	name = "Corric"
	dynasty = dynasty_ebenweal
	religion = castanorian_pantheon
	culture = trystanite

	trait = education_diplomacy_2
	trait = diligent
	trait = calm
	trait = arrogant
	trait = race_human

	975.1.8 = {
		birth = yes
	}

	1018.5.17 = {
		add_spouse = castanorian_0001
	}
}

castanorian_0001 = { # Madala, Corrics wife
	name = "Madala"
	religion = castanorian_pantheon
	culture = trystanite
	female = yes

	trait = education_intrigue_1
	trait = content
	trait = calm
	trait = shy
	trait = race_human

	983.9.13 = {
		birth = yes
	}

	1018.5.17 = {
		add_spouse = ebenweal_0001
	}
}

ebenweal_0002 = {
	name = "Dustyn"
	dynasty = dynasty_ebenweal
	religion = castanorian_pantheon
	culture = trystanite

	father = ebenweal_0001
	mother = castanorian_0001

	trait = sickly

	1019.3.5 = {
		birth = yes
	}
}

treoarcen_0001 = { #Count Ottran Trecoarcen
	name = "Ottran"
	dynasty = dynasty_treoarcen
	religion = "castanorian_pantheon"
	culture = "marcher"

	trait = race_human
	trait = education_diplomacy_2
	trait = calm
	trait = lustful
	trait = generous
	trait = lifestyle_reveler
	trait = cautious_leader
	trait = fecund

	960.5.12 = {
		birth = yes
	}

	981.5.13 = {
		add_spouse = treoarcen_0002
	}
}

treoarcen_0002 = { # Enith, Ottran Treoarcen's wife
	name = "Enith"
	# lowborn
	religion = "castanorian_pantheon"
	culture = "marcher"
	female = yes
	
	trait = race_human
	trait = education_stewardship_3
	trait = beauty_good_2
	trait = honest
	trait = calm
	trait = gregarious

	958.1.1 = {
		birth = yes
	}

	981.5.13 = {
		add_spouse = treoarcen_0001
	}
	
	1010.2.21 = {
		death = yes
	}
}

treoarcen_0003 = { # Clarya, Ottran Treoarcen's daughter
	name = "Clarya"
	dynasty = dynasty_treoarcen
	religion = "castanorian_pantheon"
	culture = "marcher"
	female = yes
	
	trait = race_human
	trait = education_martial_2
	trait = scarred
	trait = lifestyle_blademaster
	trait = patient
	trait = cynical
	trait = just
	
	father = treoarcen_0001
	mother = treoarcen_0002
	
	981.6.21 = {
		birth = yes
	}
}

treoarcen_0004 = { # Magda, Ottran Treoarcen's daughter
	name = "Magda"
	dynasty = dynasty_treoarcen
	religion = "castanorian_pantheon"
	culture = "marcher"
	female = yes
	
	trait = race_human
	trait = education_intrigue_2
	trait = paranoid
	trait = greedy
	trait = deceitful
	trait = fecund
	
	father = treoarcen_0001
	mother = treoarcen_0002
	
	990.8.6 = {
		birth = yes
	}
}

treoarcen_0005 = { # Ottran, Ottran Treoarcen's son
	name = "Ottran"
	dynasty = dynasty_treoarcen
	religion = "castanorian_pantheon"
	culture = "marcher"
	
	trait = race_human
	trait = education_learning_3
	trait = diligent
	trait = honest
	trait = gregarious
	trait = depressed_1
	
	father = treoarcen_0001
	mother = treoarcen_0002

	1000.10.4 = {
		birth = yes
	}
}

treoarcen_0006 = { # Cora, Ottran Treoarcen's former lover
	name = "Cora"
	religion = "cult_of_the_dame"
	culture = "damerian"
	female = yes

	trait = education_intrigue_1
	trait = beauty_good_1
	trait = vengeful
	trait = callous
	trait = wrathful
	trait = race_human

	948.6.21 = {
		birth = yes
	}
	
	1010.2.21 = {
		death = yes
	}

}

treoarcen_0007 = { # Domnic, Ottran Treoarcen's bastard son
	name = "Domnic"
	dynasty = dynasty_treoarcen
	religion = "cult_of_the_dame"
	culture = "damerian"
	
	father = treoarcen_0001
	mother = treoarcen_0006

	trait = education_martial_2
	trait = strong
	trait = vengeful
	trait = fecund
	trait = impatient
	trait = one_eyed
	trait = wrathful
	trait = bastard
	trait = race_human

	981.8.6 = {
		birth = yes
	}
}

treoarcen_0008 = { # Cela, Ottran Treoarcen's former lover
	name = "Cela"
	religion = "castanorian_pantheon"
	culture = "esmari"
	female = yes

	trait = education_intrigue_3
	trait = beauty_good_2
	trait = strong
	trait = diligent
	trait = arrogant
	trait = impatient
	trait = race_human

	962.6.21 = {
		birth = yes
	}
}

treoarcen_0009 = { # Isabel, Ottran Treoarcen's bastard daugher
	name = "Isabel"
	dynasty = dynasty_treoarcen
	religion = "castanorian_pantheon"
	culture = "esmari"
	female = yes
	
	father = treoarcen_0001
	mother = treoarcen_0008

	trait = education_diplomacy_1
	trait = shy
	trait = paranoid
	trait = just
	trait = bastard
	trait = race_human

	981.8.6 = {
		birth = yes
	}
}

merewood_0001 = { # Edmund Fairhand
	name = "Edmund"
	religion = "castanorian_pantheon"
	culture = "merewoodian"
	dynasty = dynasty_fairhand

	trait = education_martial_4
	trait = brave
	trait = honest
	trait = patient 
	trait = lifestyle_blademaster 
	trait = race_human 

	970.12.24 = {
		birth = yes
	}
	990.9.30 = {
		add_spouse = merewood_0002
	}
}

merewood_0002 = { # Hildegarde of Rottenstep
	name = "Hildegarde"
	religion = "castanorian_pantheon"
	culture = "balmirish"
	dynasty = dynasty_rottenstep
	female = yes

	trait = education_intrigue_1
	trait = chaste
	trait = gluttonous 
	trait = calm  
	trait = race_human 

	970.10.3 = {
		birth = yes
	}
	990.9.30 = {
		add_spouse = merewood_0001
	}
}

merewood_0003 = { # Delian Fairhand
	name = "Delian"
	religion = "castanorian_pantheon"
	culture = "merewoodian"
	dynasty = dynasty_fairhand

	trait = education_martial_3
	trait = brave
	trait = stubborn
	trait = chaste 
	trait = lifestyle_blademaster 
	trait = race_human 

	father = merewood_0001
	mother = merewood_0002

	992.2.15 = {
		birth = yes
	}

	1021.9.30 = {
		add_spouse = merewood_0018
	}
}

merewood_0004 = { # Gisela Fairhand
	name = "Gisela"
	religion = "castanorian_pantheon"
	culture = "merewoodian"
	dynasty = dynasty_fairhand
	female=yes

	trait = education_intrigue_3
	trait = fickle
	trait = shy 
	trait = deceitful
	trait = race_human 

	father = merewood_0001
	mother = merewood_0002

	997.11.6 = {
		birth = yes
	}
}

merewood_0005 = { # Alfred Fairhand
	name = "Alfred"
	religion = "castanorian_pantheon"
	culture = "merewoodian"
	dynasty = dynasty_fairhand

	trait = education_stewardship_3
	trait = brave
	trait = stubborn
	trait = chaste
	trait = race_human 

	father = merewood_0001
	mother = merewood_0002

	1001.8.8 = {
		birth = yes
	}
}

merewood_0006 = { # Ricard síl Aldaine
	name = "Ricard"
	religion = "castanorian_pantheon"
	culture = "adeanic"
	dynasty = dynasty_aldaine

	trait = education_martial_3
	trait = brave
	trait = cynical
	trait = patient 
	trait = lifestyle_blademaster 
	trait = race_human 

	997.4.26 = {
		birth = yes
	}
	1021.9.30 = {
		add_spouse = merewood_0007
	}
}

merewood_0007 = { # Galinea
	name = "Galinea"
	religion = "elven_forebears"
	culture = "moon_elvish"
	female = yes

	trait = education_diplomacy_1
	trait = honest
	trait = cynical  
	trait = content   
	trait = race_elf

	900.8.8 = {
		birth = yes
	}
	1021.9.30 = {
		add_spouse = merewood_0006
	}
}

merewood_0008 = { # Galien síl Acenaire
	name = "Galien"
	religion = "cult_of_the_dame"
	culture = "damerian"
	dynasty = dynasty_acenaire_damerian

	trait = education_learning_1
	trait = forgiving
	trait = calm 
	trait = deceitful  
	trait = race_human 

	996.4.9 = {
		birth = yes
	}
	1018.9.30 = {
		add_spouse = merewood_0009
	}
}

merewood_0009 = { # Madaléin
	name = "Madalein"
	religion = "cult_of_the_dame"
	culture = "damerian"
	female = yes

	trait = education_diplomacy_1
	trait = stubborn
	trait = compassionate  
	trait = brave   
	trait = race_human 

	999.11.3 = {
		birth = yes
	}
	1018.9.30 = {
		add_spouse = merewood_0008
	}
}

merewood_0010 = { # Otó of Nortmerewood
	name = "OtO_"
	religion = "cult_of_the_dame"
	culture = "damerian"
	dynasty = dynasty_acenaire_damerian

	trait = race_human 

	father=merewood_0008
	mother=merewood_0009

	1018.12.12 = {
		birth = yes
	}
}

merewood_0011 = { # Varamael Lakewatcher
	name = "Varamael"
	religion = "elven_forebears"
	culture = "moon_elvish"
	dynasty = dynasty_lakewatcher

	trait = education_martial_3
	trait = brave
	trait = just  
	trait = wrathful   
	trait = race_elf

	929.9.30 = {
		birth = yes
	}
	1021.9.30 = {
		add_spouse = merewood_0012
	}
}

merewood_0012 = { # Brigida Iceguard
	name = "Brigida"
	religion = "castanorian_pantheon"
	culture = "black_castanorian"
	dynasty = dynasty_iceguard
	female = yes

	trait = education_learning_4
	trait = stubborn
	trait = just  
	trait = zealous
	trait = magical_affinity_2 
	trait = race_human 

	father = merewood_0013

	1000.6.18 = {
		birth = yes
	}
	1017.9.30 = {
		effect = {
			set_relation_friend = character:merewood_0019	# Meginulf
		}
	}
	1021.9.30 = {
		set_primary_title_to = title:c_acenthan
		add_spouse = merewood_0011
	}
}

merewood_0013 = { # Dominic Iceguard
	name = "Dominic"
	religion = "castanorian_pantheon"
	culture = "black_castanorian"
	dynasty = dynasty_iceguard

	trait = education_learning_3
	trait = stubborn
	trait = cynical  
	trait = deceitful 
	trait = magical_affinity_2
	trait = race_human 

	982.2.3 = {
		birth = yes
	}
	1017.11.16 = {
		death = {
			death_reason = death_duel
			killer = merewood_0011	
		}
	}
}

merewood_0014 = { # Adelar of Esckerport
	name = "Adelar"
	religion = "castanorian_pantheon"
	culture = "merewoodian"
	dynasty = dynasty_esckerport

	trait = education_learning_1
	trait = temperate
	trait = gregarious  
	trait = impatient   
	trait = race_human 

	998.7.14 = {
		birth = yes
	}
	1021.9.30 = {
		set_primary_title_to = title:c_esckerport
		add_spouse = merewood_0015
	}
}

merewood_0015 = { # Erela
	name = "Erela"
	religion = "castanorian_pantheon"
	culture = "merewoodian"
	female = yes

	trait = education_stewardship_2
	trait = shy
	trait = impatient   
	trait = greedy
	trait = race_human 

	1000.1.27 = {
		birth = yes
	}
	1021.9.30 = {
		add_spouse = merewood_0014
	}
}

merewood_0016 = { # Frederic of Craghyl
	name = "Frederic"
	religion = "castanorian_pantheon"
	culture = "merewoodian"
	dynasty = dynasty_craghyl

	trait = education_diplomacy_2
	trait = craven
	trait = honest  
	trait = chaste   
	trait = race_human 

	980.5.16 = {
		birth = yes
	}
	998.9.30 = {
		add_spouse = merewood_0017
	}
}

merewood_0017 = { # Emma
	name = "Emma"
	religion = "castanorian_pantheon"
	culture = "merewoodian"
	female = yes

	trait = education_intrigue_1
	trait = lazy
	trait = vengeful   
	trait = cynical
	trait = race_human 

	979.3.25 = {
		birth = yes
	}
	998.9.30 = {
		add_spouse = merewood_0016
	}
}

merewood_0018 = { # Elenor of Craghyl
	name = "Elenor"
	religion = "castanorian_pantheon"
	culture = "merewoodian"
	dynasty = dynasty_craghyl
	female = yes

	trait = education_diplomacy_3
	trait = gluttonous
	trait = compassionate
	trait = trusting 
	trait = race_human 

	father = merewood_0016
	mother = merewood_0017

	999.6.6 = {
		birth = yes
	}

	1021.9.30 = {
		add_spouse = merewood_0003
	}
}

merewood_0019 = { # Marcan of Leighalen
	name = "Marcan"
	religion = "castanorian_pantheon"
	culture = "merewoodian"
	dynasty = dynasty_leighalen

	trait = education_intrigue_2
	trait = brave
	trait = just   
	trait = humble
	trait = race_human 

	998.10.2 = {
		birth = yes
	}
	1017.9.30 = {
		effect = {
			set_relation_friend = character:merewood_0012	#Brigida
		}
	}
}

merewood_0020 = { # Darran
	name = "Darran"
	religion = "whiterose_court"
	culture = "lorentish"

	trait = education_martial_2
	trait = greedy
	trait = just 
	trait = gregarious  
	trait = race_human 

	992.3.30 = {
		birth = yes
	}
	1021.9.30 = {
		employer = merewood_0012
		effect = {
			set_relation_friend = character:merewood_0011	#Varamael
		}
	}
}
alderwood_0001 = { #Count Dorsten "The Elder" Alderwood
	name = "Dorsten"
	dynasty = dynasty_alderwood
	religion = "castanorian_pantheon"
	culture = "black_castanorian"

	trait = education_martial_4
	trait = gregarious
	trait = patient
	trait = callous
	trait = disfigured
	trait = race_human
	
	942.7.23 = {
		birth = yes
	}
	
	1015.12.6 = {
		add_trait = wounded_3
	}

	1015.12.12 = {
		death = yes
	}

}	

alderwood_0002 = { #Count Dorsten "The Younger" Alderwood
	name = "Dorsten"
	dynasty = dynasty_alderwood
	religion = "castanorian_pantheon"
	culture = "black_castanorian"

	trait = education_martial_1
	trait = humble
	trait = patient
	trait = content
	trait = loyal
	trait = race_human

	father = alderwood_0001

	960.3.14 = {
		birth = yes
	}

	980.4.12 = {
		add_spouse = alderwood_0003
	}

	1010.1.1 = {
		set_relation_best_friend = character:79
	}

	1016.2.2 = {
		add_spouse = alderwood_0004
	}

}

alderwood_0003 = { #Marila, Dorsten "the Younger"'s first wife
	name = "Marila"
	# lowborn
	religion = "castanorian_pantheon"
	culture = "black_castanorian"
	female = yes

	trait = education_learning_2
	trait = compassionate
	trait = humble
	trait = honest 
	trait = infertile
	trait = physique_bad_1
	trait = beauty_good_1

	963.8.18 = {
		birth = yes
	}

	980.4.12 = {
		add_spouse = alderwood_0002
	}

	1015.12.20 = {
		death = yes
	}

}

alderwood_0004 = { #Lorinne, Dorsten the younger's second wife
	name = "Lorinne"
	# lowborn
	religion = "castanorian_pantheon"
	culture = "black_castanorian"
	female = yes

	trait = education_diplomacy_1
	trait = zealous
	trait = compassionate
	trait = arbitrary
	trait = beauty_good_1
	
	990.1.12 = {
		birth = yes
	}

	1016.2.2 = {
		add_spouse = alderwood_0002
	}
}

alderwood_0005 = { #Alver Alderwood, Dorsten the youngers first child
	name = "Alver"
	dynasty = dynasty_alderwood
	religion = "castanorian_pantheon"
	culture = "black_castanorian"

	mother = alderwood_0004
	father = alderwood_0002

	trait = bossy
	trait = intellect_good_1

	1016.8.5 = {
		birth = yes
	}
}

alderwood_0006 = { #Alver Alderwood, Dorsten the youngers second child
	name = "Elenor"
	dynasty = dynasty_alderwood
	religion = "castanorian_pantheon"
	culture = "black_castanorian"
	female = yes

	trait = beauty_good_1

	mother = alderwood_0004
	father = alderwood_0002

	1020.8.5 = {
		birth = yes
	}
}

alderwood_0007 = { #Valen Alderwood, Dorsten the elders second child
	name = "Valen"
	dynasty = dynasty_alderwood
	religion = "castanorian_pantheon"
	culture = "black_castanorian"

	trait = education_learning_3
	trait = diligent
	trait = vengeful
	trait = shy
	trait = intellect_good_2

	father = alderwood_0001

	964.9.12 = {
		birth = yes
	}

	987.3.2 = {
		add_trait = disinherited
		add_trait = denounced
	}

	1016.1.29 = {
		remove_trait = denounced
	}
}