﻿# Anbennar: commenting vanilla stuff

# root: The province in which the building was completed
# character: The character that paid for the construction, if available
on_building_completed = {
	effect = {
		root = {
			# Hard working Tradition
			if = {
				limit = {
					culture = { has_cultural_parameter = development_gain_on_building_complete }
					NOT = { county = { has_variable = dev_gain_cooldown } }
				}
				county = {
					change_development_progress_with_overflow = 25
					set_variable = {
						name = dev_gain_cooldown
						value = yes
						days = 365
					}
				}
			}

			# Metal crafting Tradition
			if = {
				limit = {
					culture = { has_cultural_parameter = prestige_gain_on_building_complete_in_mountains }
					OR = {
						terrain = mountains
						terrain = desert_mountains
					}
				}
				county.holder = {
					add_prestige = medium_prestige_value
				}
			}
			
			# Sacred Mountains Tradition
			if = {
				limit = {
					county.holder.culture = { has_cultural_parameter = piety_gain_on_building_complete_in_mountains }
					OR = {
						terrain = mountains
						terrain = desert_mountains
					}
				}
				county.holder = {
					add_piety = minor_piety_value
				}
			}
			
			# Sacred Groves Tradition
			if = {
				limit = {
					county.holder.culture = { has_cultural_parameter = piety_gain_on_building_complete_in_forest_taiga }
					OR = {
						terrain = forest
						terrain = taiga
						terrain = jungle
					}
				}
				county.holder = {
					add_piety = minor_piety_value
				}
			}

			# FP2 Dynasty perk
			if = {
				limit = {
					has_holding_type = city_holding
					exists = county.holder.dynasty
					county.holder.dynasty = {
						has_dynasty_perk = fp2_urbanism_legacy_4
					}
				}
				county = {
					holder = {
						send_interface_toast = {
							type = event_generic_good
							title = prestige_gained_from_building_completion
							left_icon = root.barony
							add_prestige = medium_prestige_gain
						}
					}
					#### Chance to add super guest!
					# Set variables
					random = {
						chance = 10
						modifier = {
							add = county.development_level
						}
						set_variable = {
							name = number_prestigious_new_guests
							value = 1
						}
						if = {
							limit = { county.development_level >= max_development_level  }

							set_variable = {
								name = holding_quality
								value = 3
							}
						}
						else_if = {
							limit = { county.development_level >= great_development_level  }
							set_variable = {
								name = holding_quality
								value = 3
							}
						}
						else_if = {
							limit = { county.development_level >= good_development_level  }
							set_variable = {
								name = holding_quality
								value = 2
							}
						}
						else_if = {
							limit = { county.development_level >= medium_development_level  }
							set_variable = {
								name = holding_quality
								value = 2
							}
						}
						else_if = {
							limit = { county.development_level >= bad_development_level  }
							set_variable = {
								name = holding_quality
								value = 1
							}
						}
						else = {
							set_variable = {
								name = holding_quality
								value = 1
							}
						}
					}

					holder = {
						# Trigger the hidden event
						trigger_event = fp2_other_decisions.0001
					}
				}
			}

			# Struggle parameters
			# if = { # Anbennar
				# limit = {
					# has_holding_type = castle_holding
					# county.holder = {
						# any_character_struggle = {
							# involvement = involved
							# has_struggle_phase_parameter = completing_building_in_castle_gives_development
						# }
					# }
				# }
				# county = { change_development_progress_with_overflow = 10 }
			# }

			# if = { # Anbennar
				# limit = {
					# has_holding_type = church_holding
					# county.holder = {
						# any_character_struggle = {
							# involvement = involved
							# has_struggle_phase_parameter = completing_building_in_temple_gives_piety
						# }
					# }
				# }
				# county.holder = { add_piety = medium_piety_gain }
			# }

			# Struggle catalysts
			if = {
				limit = {
					has_holding_type = castle_holding
					county.holder = {
						any_character_struggle = {
							involvement = involved
							phase_has_catalyst = catalyst_new_building_in_castle
						}
					}
				}
				county.holder = {
					every_character_struggle = {
						involvement = involved
						activate_struggle_catalyst = {
							catalyst = catalyst_new_building_in_castle
							character = root.county.holder
						}
					}
				}
			}
			else_if = {
				limit = {
					has_holding_type = city_holding
					county.holder = {
						any_character_struggle = {
							involvement = involved
							phase_has_catalyst = catalyst_new_building_in_city
						}
					}
				}
				county.holder = {
					every_character_struggle = {
						involvement = involved
						activate_struggle_catalyst = {
							catalyst = catalyst_new_building_in_city
							character = root.county.holder
						}
					}
				}
			}
			else_if = {
				limit = {
					has_holding_type = church_holding
					county.holder = {
						any_character_struggle = {
							involvement = involved
							phase_has_catalyst = catalyst_new_building_in_temple
						}
					}
				}
				county.holder = {
					every_character_struggle = {
						involvement = involved
						activate_struggle_catalyst = {
							catalyst = catalyst_new_building_in_temple
							character = root.county.holder
						}
					}
				}
			}

			# if = { # Anbennar
				# limit = {
					# has_holding_type = church_holding
					# county.faith.religion = religion:islam_religion
					# county.holder = {
						# any_character_struggle = {
							# involvement = involved
							# phase_has_catalyst = catalyst_new_islamic_temple_construction
						# }
					# }
				# }
				# county.holder = {
					# every_character_struggle = {
						# involvement = involved
						# activate_struggle_catalyst = {
							# catalyst = catalyst_new_islamic_temple_construction
							# character = root.county.holder
						# }
					# }
				# }
			# }

			if = {
				limit = {
					county.holder = {
						any_character_struggle = {
							involvement = involved
							phase_has_catalyst = catalyst_new_building_in_holdings
						}
					}
				}
				county.holder = {
					every_character_struggle = {
						involvement = involved
						activate_struggle_catalyst = {
							catalyst = catalyst_new_building_in_holdings
							character = root.county.holder
						}
					}
				}
			}
			
			# Points of Interest
			# Apply them here directly so they are more promptly added than monthly via the POI update
			if = {
				limit = {
					has_special_building = no
				}
			}
			else_if = {
				limit = {
					OR = {
						has_building_with_flag = { flag = travel_point_of_interest_martial }
						has_building_with_flag = { flag = travel_point_of_interest_martial_minor }
					}
					NOT = { has_travel_point_of_interest = poi_special_buildings_martial }
				}
				add_travel_point_of_interest = poi_special_buildings_martial
			}
			else_if = {
				limit = {
					has_building_with_flag = { flag = travel_point_of_interest_learning }
					NOT = { has_travel_point_of_interest = poi_special_buildings_learning }
				}
				add_travel_point_of_interest = poi_special_buildings_learning
			}
			else_if = {
				limit = {
					has_building_with_flag = { flag = travel_point_of_interest_religious }
					NOT = { has_travel_point_of_interest = poi_special_buildings_religious }
				}
				add_travel_point_of_interest = poi_special_buildings_religious
			}
			else_if = {
				limit = {
					has_building_with_flag = { flag = travel_point_of_interest_diplomatic }
					NOT = { has_travel_point_of_interest = poi_special_buildings_diplomatic }
				}
				add_travel_point_of_interest = poi_special_buildings_diplomatic
			}
			else_if = {
				limit = {
					has_building_with_flag = { flag = travel_point_of_interest_wonder }
					NOT = { has_travel_point_of_interest = poi_special_buildings_wonder }
				}
				add_travel_point_of_interest = poi_special_buildings_wonder
			}
			else_if = {
				limit = {
					has_building_with_flag = { flag = travel_point_of_interest_economic }
					NOT = { has_travel_point_of_interest = poi_special_buildings_economic }
				}
				add_travel_point_of_interest = poi_special_buildings_economic
			}

			# The Builder event chain
			if = {
				limit = { 
					has_variable = the_builder_holding
					NOT = { has_variable = the_builder_finished }
				}
				var:the_builder_holding = { save_scope_as = holding_initiator }
				#Did the Builder actually finish the holding, or was it cancelled?
				scope:holding_initiator = {
					if = {
						limit = {
							is_alive = yes
							is_landed = yes
							is_available = yes
						}
						#Then remove the safeguard event that would clean up the Builder
						if = {
							limit = { has_variable = the_builder_holding_cancelled_safeguard }
							remove_variable = the_builder_holding_cancelled_safeguard
						}
						#And trigger reward event
						trigger_event = bp2_yearly.1071
					}
				}
				set_variable = { name = the_builder_finished }
			}
			# Every time the Builder builds in their holding...
			if = {
				limit = {
					county.holder ?= { 
						OR = {
							has_character_modifier = the_city_builder_modifier
							has_character_modifier = the_castle_builder_modifier
							has_character_modifier = the_temple_builder_modifier
						}
					}
				}
				county = { change_development_progress = minor_development_progress_gain }
				if = {
					limit = {
						county.holder ?= { has_character_modifier = the_city_builder_modifier }
					}
					county.holder = { add_gold = minor_gold_value }
				}
				if = {
					limit = {
						county.holder ?= { has_character_modifier = the_castle_builder_modifier }
					}
					county.holder = { add_prestige = minor_prestige_gain }
				}
				if = {
					limit = {
						county.holder ?= { has_character_modifier = the_temple_builder_modifier }
					}
					county.holder = { add_piety = minor_piety_gain }
				}
			}
		}
	}
}

# root: The province in which the building was started
# character: The character that paid for the construction, if available
on_building_started = {
	effect = {

	}
}

# root: The province in which the building was cancelled
# character: The character that paid for the construction, if available
on_building_cancelled = {
	effect = {
	
	}
}
