#k_rimurhals
##d_drekkiskali
###c_rosstavik
973 = {		#Rosstavik

    # Misc
    culture = olavish
    religion = skaldhyrric_faith
	holding = tribal_holding

    # History
}
2733 = {

    # Misc
    holding = tribal_holding

    # History

}
2734 = {

    # Misc
    holding = none

    # History

}

###c_jotunskol
972 = {		#Jotunskol

    # Misc
    culture = olavish
    religion = skaldhyrric_faith
	holding = tribal_holding

    # History
}
2735 = {

    # Misc
    holding = none

    # History

}

###c_glodborg
974 = {		#Glodborg

    # Misc
    culture = olavish
    religion = skaldhyrric_faith
	holding = tribal_holding

    # History
}
2736 = {

    # Misc
    holding = none

    # History

}
2737 = {

    # Misc
    holding = none

    # History

}

##d_olavslund
###c_olavsborg
977 = {		#Olavsborg

    # Misc
    culture = olavish
    religion = skaldhyrric_faith
	holding = tribal_holding

    # History
}
2725 = {

    # Misc
    holding = none

    # History

}
2726 = {

    # Misc
    holding = none

    # History

}

###c_redgarhavn
975 = {		#Redgarhavn

    # Misc
    culture = olavish
    religion = skaldhyrric_faith
	holding = tribal_holding

    # History
}
2727 = {

    # Misc
    holding = none

    # History

}
2728 = {

    # Misc
    holding = none

    # History

}
2729 = {

    # Misc
    holding = none

    # History

}
2730 = {

    # Misc
    holding = none

    # History

}

###c_skaldol
976 = {		#Skaldol

    # Misc
    culture = olavish
    religion = skaldhyrric_faith
	holding = church_holding

    # History
}
2731 = {

    # Misc
    holding = none

    # History

}
2732 = {

    # Misc
    holding = none

    # History

}

##d_jotunhamr
###c_jotunhamr
985 = {		#Jotunhamr

    # Misc
    culture = olavish
    religion = skaldhyrric_faith
	holding = tribal_holding

    # History
}
2766 = {

    # Misc
    holding = none

    # History

}
2767 = {

    # Misc
    holding = none

    # History

}