180 = {

    # Misc
    culture = bluescale
    religion = cult_of_the_dame
	holding = tribal_holding

    # History
}

182 = {

    # Misc
    culture = bluescale
    religion = cult_of_the_dame
	holding = tribal_holding

    # History
}

183 = {

    # Misc
    culture = bluescale
    religion = cult_of_the_dame
	holding = tribal_holding

    # History
}

184 = {

    # Misc
    culture = bluescale
    religion = cult_of_the_dame
	holding = tribal_holding

    # History
}

187 = {

    # Misc
    culture = bluescale
    religion = cult_of_the_dame
	holding = tribal_holding

    # History
}
6433={
    # Misc
    holding = none

    # History
}
6434={
    # Misc
    holding = none

    # History
}
6435={
    # Misc
    holding = none

    # History
}
6436={
    # Misc
    holding = none

    # History
}
6437={
    # Misc
    holding = none

    # History
}
6438={
    # Misc
    holding = none

    # History
}
6439={
    # Misc
    holding = none

    # History
}
6440={
    # Misc
    holding = none

    # History
}
6441={
    # Misc
    holding = none

    # History
}
6442={
    # Misc
    holding = none

    # History
}
6443={
    # Misc
    holding = none

    # History
}
6444={
    # Misc
    holding = none

    # History
}